EESchema Schematic File Version 4
EELAYER 30 0
EELAYER END
$Descr A4 11693 8268
encoding utf-8
Sheet 5 5
Title "DC Noise Measurement Board"
Date "2021-04-28"
Rev "v1"
Comp "LBNL"
Comment1 "Zhicai Zhang"
Comment2 ""
Comment3 ""
Comment4 ""
$EndDescr
$Comp
L noise:MAX6070AAUT18+T U9
U 1 1 60B6A001
P 4150 1900
F 0 "U9" H 4800 2287 60  0000 C CNN
F 1 "MAX6070AAUT18+T" H 4800 2181 60  0000 C CNN
F 2 "Package_TO_SOT_SMD:TSOT-23-6" H 4850 2100 60  0001 C CNN
F 3 "" H 4150 1900 60  0000 C CNN
	1    4150 1900
	1    0    0    -1  
$EndComp
$Comp
L power:+3V3 #PWR051
U 1 1 60B6BFF3
P 5600 2100
F 0 "#PWR051" H 5600 1950 50  0001 C CNN
F 1 "+3V3" H 5615 2273 50  0000 C CNN
F 2 "" H 5600 2100 50  0001 C CNN
F 3 "" H 5600 2100 50  0001 C CNN
	1    5600 2100
	1    0    0    -1  
$EndComp
$Comp
L power:+3V3 #PWR050
U 1 1 60B6D57A
P 3700 2100
F 0 "#PWR050" H 3700 1950 50  0001 C CNN
F 1 "+3V3" V 3715 2228 50  0000 L CNN
F 2 "" H 3700 2100 50  0001 C CNN
F 3 "" H 3700 2100 50  0001 C CNN
	1    3700 2100
	0    -1   -1   0   
$EndComp
$Comp
L Device:R R6
U 1 1 60B6E18E
P 3900 2100
F 0 "R6" V 4000 2050 50  0000 L CNN
F 1 "10k" V 3900 2050 50  0000 L CNN
F 2 "Resistor_SMD:R_0805_2012Metric" V 3830 2100 50  0001 C CNN
F 3 "~" H 3900 2100 50  0001 C CNN
	1    3900 2100
	0    1    1    0   
$EndComp
Wire Wire Line
	3750 2100 3700 2100
Wire Wire Line
	4150 2100 4050 2100
$Comp
L Device:C C19
U 1 1 60B71065
P 3100 1750
F 0 "C19" H 3100 1850 50  0000 L CNN
F 1 "0.1uF" H 3100 1650 50  0000 L CNN
F 2 "Capacitor_SMD:C_0805_2012Metric" H 3138 1600 50  0001 C CNN
F 3 "~" H 3100 1750 50  0001 C CNN
	1    3100 1750
	1    0    0    -1  
$EndComp
$Comp
L power:GND #PWR049
U 1 1 60B7350F
P 3100 2050
F 0 "#PWR049" H 3100 1800 50  0001 C CNN
F 1 "GND" H 3105 1877 50  0000 C CNN
F 2 "" H 3100 2050 50  0001 C CNN
F 3 "" H 3100 2050 50  0001 C CNN
	1    3100 2050
	1    0    0    -1  
$EndComp
Wire Wire Line
	4150 1900 3650 1900
Wire Wire Line
	3650 1900 3650 1550
Wire Wire Line
	3650 1550 3100 1550
Wire Wire Line
	3100 1550 3100 1600
Wire Wire Line
	3100 2050 3100 2000
Wire Wire Line
	4150 2000 3100 2000
Connection ~ 3100 2000
Wire Wire Line
	3100 2000 3100 1900
Wire Wire Line
	5450 2100 5600 2100
$Comp
L Device:C C21
U 1 1 60B74BA6
P 5600 2350
F 0 "C21" H 5600 2450 50  0000 L CNN
F 1 "0.1uF" H 5600 2250 50  0000 L CNN
F 2 "Capacitor_SMD:C_0805_2012Metric" H 5638 2200 50  0001 C CNN
F 3 "~" H 5600 2350 50  0001 C CNN
	1    5600 2350
	1    0    0    -1  
$EndComp
$Comp
L power:GND #PWR053
U 1 1 60B7522C
P 5600 2600
F 0 "#PWR053" H 5600 2350 50  0001 C CNN
F 1 "GND" H 5605 2427 50  0000 C CNN
F 2 "" H 5600 2600 50  0001 C CNN
F 3 "" H 5600 2600 50  0001 C CNN
	1    5600 2600
	1    0    0    -1  
$EndComp
Wire Wire Line
	5600 2600 5600 2500
Wire Wire Line
	5600 2200 5600 2100
Connection ~ 5600 2100
Wire Wire Line
	5450 2000 5450 1900
$Comp
L Device:C C20
U 1 1 60B79379
P 5950 1850
F 0 "C20" H 5950 1950 50  0000 L CNN
F 1 "0.1uF" H 5950 1750 50  0000 L CNN
F 2 "Capacitor_SMD:C_0805_2012Metric" H 5988 1700 50  0001 C CNN
F 3 "~" H 5950 1850 50  0001 C CNN
	1    5950 1850
	1    0    0    -1  
$EndComp
$Comp
L power:GND #PWR052
U 1 1 60B7937F
P 5950 2100
F 0 "#PWR052" H 5950 1850 50  0001 C CNN
F 1 "GND" H 5955 1927 50  0000 C CNN
F 2 "" H 5950 2100 50  0001 C CNN
F 3 "" H 5950 2100 50  0001 C CNN
	1    5950 2100
	1    0    0    -1  
$EndComp
Wire Wire Line
	5950 2100 5950 2000
Wire Wire Line
	5450 1900 5450 1650
Wire Wire Line
	5450 1650 5950 1650
Wire Wire Line
	5950 1650 5950 1700
Connection ~ 5450 1900
$Comp
L power:+1V8 #PWR048
U 1 1 60B79FB6
P 5950 1550
F 0 "#PWR048" H 5950 1400 50  0001 C CNN
F 1 "+1V8" H 5965 1723 50  0000 C CNN
F 2 "" H 5950 1550 50  0001 C CNN
F 3 "" H 5950 1550 50  0001 C CNN
	1    5950 1550
	1    0    0    -1  
$EndComp
Wire Wire Line
	5950 1650 5950 1550
Connection ~ 5950 1650
$Comp
L power:+1V8 #PWR056
U 1 1 60B7AA5E
P 4000 4450
F 0 "#PWR056" H 4000 4300 50  0001 C CNN
F 1 "+1V8" H 4015 4623 50  0000 C CNN
F 2 "" H 4000 4450 50  0001 C CNN
F 3 "" H 4000 4450 50  0001 C CNN
	1    4000 4450
	1    0    0    -1  
$EndComp
Wire Wire Line
	4000 4450 4100 4450
NoConn ~ 4100 4650
$Comp
L power:+3V3 #PWR054
U 1 1 60B7BCB1
P 4900 3800
F 0 "#PWR054" H 4900 3650 50  0001 C CNN
F 1 "+3V3" H 4915 3973 50  0000 C CNN
F 2 "" H 4900 3800 50  0001 C CNN
F 3 "" H 4900 3800 50  0001 C CNN
	1    4900 3800
	1    0    0    -1  
$EndComp
$Comp
L Device:C C23
U 1 1 60B7D1D2
P 5850 4000
F 0 "C23" H 5850 4100 50  0000 L CNN
F 1 "0.1uF" H 5850 3900 50  0000 L CNN
F 2 "Capacitor_SMD:C_0805_2012Metric" H 5888 3850 50  0001 C CNN
F 3 "~" H 5850 4000 50  0001 C CNN
	1    5850 4000
	1    0    0    -1  
$EndComp
$Comp
L power:GND #PWR055
U 1 1 60B7D1D8
P 5850 4250
F 0 "#PWR055" H 5850 4000 50  0001 C CNN
F 1 "GND" H 5855 4077 50  0000 C CNN
F 2 "" H 5850 4250 50  0001 C CNN
F 3 "" H 5850 4250 50  0001 C CNN
	1    5850 4250
	1    0    0    -1  
$EndComp
Wire Wire Line
	5850 4250 5850 4200
$Comp
L Device:C C22
U 1 1 60B7D38C
P 5550 4000
F 0 "C22" H 5550 4100 50  0000 L CNN
F 1 "10uF" H 5550 3900 50  0000 L CNN
F 2 "Capacitor_SMD:C_0805_2012Metric" H 5588 3850 50  0001 C CNN
F 3 "~" H 5550 4000 50  0001 C CNN
	1    5550 4000
	1    0    0    -1  
$EndComp
Wire Wire Line
	4900 4050 4900 3850
Wire Wire Line
	4900 3850 5550 3850
Connection ~ 4900 3850
Wire Wire Line
	4900 3850 4900 3800
Wire Wire Line
	5550 3850 5850 3850
Connection ~ 5550 3850
Wire Wire Line
	5850 4200 5550 4200
Wire Wire Line
	5550 4200 5550 4150
Connection ~ 5850 4200
Wire Wire Line
	5850 4200 5850 4150
NoConn ~ 5800 4650
NoConn ~ 5800 4750
NoConn ~ 5800 4850
Text HLabel 3950 4950 0    50   Input ~ 0
SCL
Text HLabel 3950 5050 0    50   Input ~ 0
SDA
Wire Wire Line
	4100 4950 3950 4950
Wire Wire Line
	4100 5050 3950 5050
$Comp
L power:GND #PWR057
U 1 1 60B80FBD
P 4900 5950
F 0 "#PWR057" H 4900 5700 50  0001 C CNN
F 1 "GND" H 4905 5777 50  0000 C CNN
F 2 "" H 4900 5950 50  0001 C CNN
F 3 "" H 4900 5950 50  0001 C CNN
	1    4900 5950
	1    0    0    -1  
$EndComp
Connection ~ 4900 5750
Wire Wire Line
	4900 5950 4900 5750
Wire Wire Line
	4100 4750 3550 4750
Wire Wire Line
	3550 4750 3550 5250
Wire Wire Line
	3550 5250 4100 5250
Wire Wire Line
	3550 5250 3550 5750
Connection ~ 3550 5250
Wire Wire Line
	4900 5750 5000 5750
Wire Wire Line
	3550 5750 4800 5750
$Comp
L noise:AD7997 U10
U 1 1 609527B7
P 4100 4450
F 0 "U10" H 4550 4600 60  0000 C CNN
F 1 "AD7997" H 5250 4600 60  0000 C CNN
F 2 "Package_SO:TSSOP-20_4.4x6.5mm_P0.65mm" H 5400 3400 60  0001 C CNN
F 3 "" H 4100 4450 60  0000 C CNN
	1    4100 4450
	1    0    0    -1  
$EndComp
Wire Wire Line
	6000 4550 5800 4550
Text HLabel 6000 4550 2    50   Input ~ 0
RMSout
Wire Wire Line
	5000 4050 4900 4050
Connection ~ 4900 4050
NoConn ~ 5800 4950
NoConn ~ 5800 5050
NoConn ~ 5800 5150
NoConn ~ 5800 5250
Wire Wire Line
	5100 5750 5000 5750
Connection ~ 5000 5750
Wire Wire Line
	4900 5750 4800 5750
Connection ~ 4800 5750
$EndSCHEMATC
