(export (version D)
  (design
    (source /home/zhicai/gDrive/silicon/rtx_git/dc_noise_measurement/dc_noise_measurement.sch)
    (date "Fri 11 Jun 2021 01:21:13 AM PDT")
    (tool "Eeschema 5.1.10-88a1d61d58~88~ubuntu20.04.1")
    (sheet (number 1) (name /) (tstamps /)
      (title_block
        (title "DC Noise Measurement Board")
        (company LBNL)
        (rev v1)
        (date 2021-04-28)
        (source dc_noise_measurement.sch)
        (comment (number 1) (value "Zhicai Zhang"))
        (comment (number 2) (value ""))
        (comment (number 3) (value ""))
        (comment (number 4) (value ""))))
    (sheet (number 2) (name /Connectors/) (tstamps /60988A05/)
      (title_block
        (title "DC Noise Measurement Board")
        (company LBNL)
        (rev v1)
        (date 2021-04-28)
        (source Connectors.sch)
        (comment (number 1) (value "Zhicai Zhang"))
        (comment (number 2) (value ""))
        (comment (number 3) (value ""))
        (comment (number 4) (value ""))))
    (sheet (number 3) (name /Mux/) (tstamps /60988A7C/)
      (title_block
        (title "DC Noise Measurement Board")
        (company LBNL)
        (rev v1)
        (date 2021-04-28)
        (source Mux.sch)
        (comment (number 1) (value "Zhicai Zhang"))
        (comment (number 2) (value ""))
        (comment (number 3) (value ""))
        (comment (number 4) (value ""))))
    (sheet (number 4) (name /RMSToDC/) (tstamps /6084D42A/)
      (title_block
        (title "DC Noise Measurement Board")
        (company LBNL)
        (rev v1)
        (date 2021-04-28)
        (source RMSToDC.sch)
        (comment (number 1) (value "Zhicai Zhang"))
        (comment (number 2) (value ""))
        (comment (number 3) (value ""))
        (comment (number 4) (value ""))))
    (sheet (number 5) (name /ADC/) (tstamps /60988BBA/)
      (title_block
        (title "DC Noise Measurement Board")
        (company LBNL)
        (rev v1)
        (date 2021-04-28)
        (source ADC.sch)
        (comment (number 1) (value "Zhicai Zhang"))
        (comment (number 2) (value ""))
        (comment (number 3) (value ""))
        (comment (number 4) (value "")))))
  (components
    (comp (ref J1)
      (value Conn_02x02_Odd_Even)
      (footprint Connector_PinSocket_2.54mm:PinSocket_2x02_P2.54mm_Vertical)
      (datasheet ~)
      (libsource (lib Connector_Generic) (part Conn_02x02_Odd_Even) (description "Generic connector, double row, 02x02, odd/even pin numbering scheme (row 1 odd numbers, row 2 even numbers), script generated (kicad-library-utils/schlib/autogen/connector/)"))
      (sheetpath (names /Connectors/) (tstamps /60988A05/))
      (tstamp 609F7FF4))
    (comp (ref J11)
      (value Conn_02x02_Odd_Even)
      (footprint Connector_PinSocket_2.54mm:PinSocket_2x02_P2.54mm_Vertical)
      (datasheet ~)
      (libsource (lib Connector_Generic) (part Conn_02x02_Odd_Even) (description "Generic connector, double row, 02x02, odd/even pin numbering scheme (row 1 odd numbers, row 2 even numbers), script generated (kicad-library-utils/schlib/autogen/connector/)"))
      (sheetpath (names /Connectors/) (tstamps /60988A05/))
      (tstamp 608B6A38))
    (comp (ref J12)
      (value QWIIC)
      (footprint noise:1X04_1MM_RA)
      (fields
        (field (name Field4) CONN-13729))
      (libsource (lib noise) (part QWIIC) (description ""))
      (sheetpath (names /Connectors/) (tstamps /60988A05/))
      (tstamp 608E8C43))
    (comp (ref U1)
      (value ADP123)
      (footprint Package_TO_SOT_SMD:TSOT-23-5)
      (libsource (lib noise) (part ADP123) (description ""))
      (sheetpath (names /Connectors/) (tstamps /60988A05/))
      (tstamp 6090D523))
    (comp (ref C1)
      (value 1uF)
      (footprint Capacitor_SMD:C_0805_2012Metric)
      (datasheet ~)
      (libsource (lib Device) (part C) (description "Unpolarized capacitor"))
      (sheetpath (names /Connectors/) (tstamps /60988A05/))
      (tstamp 6090F7A2))
    (comp (ref R1)
      (value 133k)
      (footprint Resistor_SMD:R_0805_2012Metric)
      (datasheet ~)
      (libsource (lib Device) (part R) (description Resistor))
      (sheetpath (names /Connectors/) (tstamps /60988A05/))
      (tstamp 60910371))
    (comp (ref R2)
      (value 33.2k)
      (footprint Resistor_SMD:R_0805_2012Metric)
      (datasheet ~)
      (libsource (lib Device) (part R) (description Resistor))
      (sheetpath (names /Connectors/) (tstamps /60988A05/))
      (tstamp 60910E3B))
    (comp (ref C2)
      (value 1uF)
      (footprint Capacitor_SMD:C_0805_2012Metric)
      (datasheet ~)
      (libsource (lib Device) (part C) (description "Unpolarized capacitor"))
      (sheetpath (names /Connectors/) (tstamps /60988A05/))
      (tstamp 60911BF7))
    (comp (ref U2)
      (value ADP7182AUJZ-2.5)
      (footprint Package_TO_SOT_SMD:TSOT-23-5)
      (datasheet https://www.analog.com/media/en/technical-documentation/data-sheets/ADP7182.pdf)
      (libsource (lib Regulator_Linear) (part ADP7182AUJZ-2.5) (description "200mA, Low Noise, CMOS Low Dropout Regulator, Negative, -2.5V Fixed Output, TSOT-23-5"))
      (sheetpath (names /Connectors/) (tstamps /60988A05/))
      (tstamp 6093D51E))
    (comp (ref C3)
      (value 1uF)
      (footprint Capacitor_SMD:C_0805_2012Metric)
      (datasheet ~)
      (libsource (lib Device) (part C) (description "Unpolarized capacitor"))
      (sheetpath (names /Connectors/) (tstamps /60988A05/))
      (tstamp 6094153A))
    (comp (ref C4)
      (value 1uF)
      (footprint Capacitor_SMD:C_0805_2012Metric)
      (datasheet ~)
      (libsource (lib Device) (part C) (description "Unpolarized capacitor"))
      (sheetpath (names /Connectors/) (tstamps /60988A05/))
      (tstamp 6094196F))
    (comp (ref J3)
      (value Conn_02x02_Odd_Even)
      (footprint Connector_PinSocket_2.54mm:PinSocket_2x02_P2.54mm_Vertical)
      (datasheet ~)
      (libsource (lib Connector_Generic) (part Conn_02x02_Odd_Even) (description "Generic connector, double row, 02x02, odd/even pin numbering scheme (row 1 odd numbers, row 2 even numbers), script generated (kicad-library-utils/schlib/autogen/connector/)"))
      (sheetpath (names /Connectors/) (tstamps /60988A05/))
      (tstamp 609914A4))
    (comp (ref J5)
      (value Conn_02x02_Odd_Even)
      (footprint Connector_PinSocket_2.54mm:PinSocket_2x02_P2.54mm_Vertical)
      (datasheet ~)
      (libsource (lib Connector_Generic) (part Conn_02x02_Odd_Even) (description "Generic connector, double row, 02x02, odd/even pin numbering scheme (row 1 odd numbers, row 2 even numbers), script generated (kicad-library-utils/schlib/autogen/connector/)"))
      (sheetpath (names /Connectors/) (tstamps /60988A05/))
      (tstamp 60994485))
    (comp (ref J7)
      (value Conn_02x02_Odd_Even)
      (footprint Connector_PinSocket_2.54mm:PinSocket_2x02_P2.54mm_Vertical)
      (datasheet ~)
      (libsource (lib Connector_Generic) (part Conn_02x02_Odd_Even) (description "Generic connector, double row, 02x02, odd/even pin numbering scheme (row 1 odd numbers, row 2 even numbers), script generated (kicad-library-utils/schlib/autogen/connector/)"))
      (sheetpath (names /Connectors/) (tstamps /60988A05/))
      (tstamp 60997771))
    (comp (ref J9)
      (value Conn_02x02_Odd_Even)
      (footprint Connector_PinSocket_2.54mm:PinSocket_2x02_P2.54mm_Vertical)
      (datasheet ~)
      (libsource (lib Connector_Generic) (part Conn_02x02_Odd_Even) (description "Generic connector, double row, 02x02, odd/even pin numbering scheme (row 1 odd numbers, row 2 even numbers), script generated (kicad-library-utils/schlib/autogen/connector/)"))
      (sheetpath (names /Connectors/) (tstamps /60988A05/))
      (tstamp 6099AC5A))
    (comp (ref J2)
      (value Conn_02x02_Odd_Even)
      (footprint Connector_PinSocket_2.54mm:PinSocket_2x02_P2.54mm_Vertical)
      (datasheet ~)
      (libsource (lib Connector_Generic) (part Conn_02x02_Odd_Even) (description "Generic connector, double row, 02x02, odd/even pin numbering scheme (row 1 odd numbers, row 2 even numbers), script generated (kicad-library-utils/schlib/autogen/connector/)"))
      (sheetpath (names /Connectors/) (tstamps /60988A05/))
      (tstamp 609A577C))
    (comp (ref J4)
      (value Conn_02x02_Odd_Even)
      (footprint Connector_PinSocket_2.54mm:PinSocket_2x02_P2.54mm_Vertical)
      (datasheet ~)
      (libsource (lib Connector_Generic) (part Conn_02x02_Odd_Even) (description "Generic connector, double row, 02x02, odd/even pin numbering scheme (row 1 odd numbers, row 2 even numbers), script generated (kicad-library-utils/schlib/autogen/connector/)"))
      (sheetpath (names /Connectors/) (tstamps /60988A05/))
      (tstamp 609AE8E7))
    (comp (ref J6)
      (value Conn_02x02_Odd_Even)
      (footprint Connector_PinSocket_2.54mm:PinSocket_2x02_P2.54mm_Vertical)
      (datasheet ~)
      (libsource (lib Connector_Generic) (part Conn_02x02_Odd_Even) (description "Generic connector, double row, 02x02, odd/even pin numbering scheme (row 1 odd numbers, row 2 even numbers), script generated (kicad-library-utils/schlib/autogen/connector/)"))
      (sheetpath (names /Connectors/) (tstamps /60988A05/))
      (tstamp 609B12E6))
    (comp (ref J8)
      (value Conn_02x02_Odd_Even)
      (footprint Connector_PinSocket_2.54mm:PinSocket_2x02_P2.54mm_Vertical)
      (datasheet ~)
      (libsource (lib Connector_Generic) (part Conn_02x02_Odd_Even) (description "Generic connector, double row, 02x02, odd/even pin numbering scheme (row 1 odd numbers, row 2 even numbers), script generated (kicad-library-utils/schlib/autogen/connector/)"))
      (sheetpath (names /Connectors/) (tstamps /60988A05/))
      (tstamp 609B48AE))
    (comp (ref J10)
      (value Conn_02x02_Odd_Even)
      (footprint Connector_PinSocket_2.54mm:PinSocket_2x02_P2.54mm_Vertical)
      (datasheet ~)
      (libsource (lib Connector_Generic) (part Conn_02x02_Odd_Even) (description "Generic connector, double row, 02x02, odd/even pin numbering scheme (row 1 odd numbers, row 2 even numbers), script generated (kicad-library-utils/schlib/autogen/connector/)"))
      (sheetpath (names /Connectors/) (tstamps /60988A05/))
      (tstamp 609B8567))
    (comp (ref U4)
      (value MCP23009-x_SS)
      (footprint noise:SSOP-20_5.3x7.2mm_P0.65mm)
      (libsource (lib noise) (part MCP23009-x_SS) (description ""))
      (sheetpath (names /Mux/) (tstamps /60988A7C/))
      (tstamp 60A5EDCB))
    (comp (ref C6)
      (value 0.1uF)
      (footprint Capacitor_SMD:C_0805_2012Metric)
      (datasheet ~)
      (libsource (lib Device) (part C) (description "Unpolarized capacitor"))
      (sheetpath (names /Mux/) (tstamps /60988A7C/))
      (tstamp 60AD729A))
    (comp (ref C7)
      (value 0.1uF)
      (footprint Capacitor_SMD:C_0805_2012Metric)
      (datasheet ~)
      (libsource (lib Device) (part C) (description "Unpolarized capacitor"))
      (sheetpath (names /Mux/) (tstamps /60988A7C/))
      (tstamp 60B206CD))
    (comp (ref R3)
      (value 10k)
      (footprint Resistor_SMD:R_0805_2012Metric)
      (datasheet ~)
      (libsource (lib Device) (part R) (description Resistor))
      (sheetpath (names /Mux/) (tstamps /60988A7C/))
      (tstamp 60B362BE))
    (comp (ref U3)
      (value MAX4704EUB+)
      (footprint digikey-footprints:MSOP-10_W3mm)
      (libsource (lib noise) (part MAX4704EUB+) (description ""))
      (sheetpath (names /Mux/) (tstamps /60988A7C/))
      (tstamp 60DDC652))
    (comp (ref C5)
      (value 0.1uF)
      (footprint Capacitor_SMD:C_0805_2012Metric)
      (datasheet ~)
      (libsource (lib Device) (part C) (description "Unpolarized capacitor"))
      (sheetpath (names /Mux/) (tstamps /60988A7C/))
      (tstamp 60E66B71))
    (comp (ref U5)
      (value MAX4704EUB+)
      (footprint digikey-footprints:MSOP-10_W3mm)
      (libsource (lib noise) (part MAX4704EUB+) (description ""))
      (sheetpath (names /Mux/) (tstamps /60988A7C/))
      (tstamp 60E66B8C))
    (comp (ref C8)
      (value 0.1uF)
      (footprint Capacitor_SMD:C_0805_2012Metric)
      (datasheet ~)
      (libsource (lib Device) (part C) (description "Unpolarized capacitor"))
      (sheetpath (names /Mux/) (tstamps /60988A7C/))
      (tstamp 60E68D94))
    (comp (ref U6)
      (value MAX4704EUB+)
      (footprint digikey-footprints:MSOP-10_W3mm)
      (libsource (lib noise) (part MAX4704EUB+) (description ""))
      (sheetpath (names /Mux/) (tstamps /60988A7C/))
      (tstamp 60E68DAF))
    (comp (ref U7)
      (value LTC1968CMS8_PBF)
      (footprint digikey-footprints:TSSOP-8_W3mm)
      (datasheet http://www.linear.com/docs/5090)
      (fields
        (field (name Category) "Integrated Circuits (ICs)")
        (field (name DK_Datasheet_Link) http://www.linear.com/docs/5090)
        (field (name DK_Detail_Page) /product-detail/en/linear-technology-analog-devices/LTC1968CMS8-PBF/LTC1968CMS8-PBF-ND/963602)
        (field (name Description) "IC CONVERTER RMS-DC PREC 8MSOP")
        (field (name Digi-Key_PN) LTC1968CMS8#PBF-ND)
        (field (name Family) "PMIC - RMS to DC Converters")
        (field (name MPN) LTC1968CMS8#PBF)
        (field (name Manufacturer) "Linear Technology/Analog Devices")
        (field (name Status) Active))
      (libsource (lib dk_PMIC-RMS-to-DC-Converters) (part LTC1968CMS8_PBF) (description "IC CONVERTER RMS-DC PREC 8MSOP"))
      (sheetpath (names /RMSToDC/) (tstamps /6084D42A/))
      (tstamp 6084FCE3))
    (comp (ref U8)
      (value LTC6268xS8-10)
      (footprint Package_SO:SO-8_3.9x4.9mm_P1.27mm)
      (datasheet https://www.analog.com/media/en/technical-documentation/data-sheets/626810f.pdf)
      (libsource (lib noise) (part LTC6268xS8-10) (description ""))
      (sheetpath (names /RMSToDC/) (tstamps /6084D42A/))
      (tstamp 6084FCE9))
    (comp (ref C15)
      (value 10uF)
      (footprint Capacitor_SMD:C_0805_2012Metric)
      (datasheet ~)
      (libsource (lib Device) (part C) (description "Unpolarized capacitor"))
      (sheetpath (names /RMSToDC/) (tstamps /6084D42A/))
      (tstamp 6093B3DD))
    (comp (ref C13)
      (value 0.1uF)
      (footprint Capacitor_SMD:C_0805_2012Metric)
      (datasheet ~)
      (libsource (lib Device) (part C) (description "Unpolarized capacitor"))
      (sheetpath (names /RMSToDC/) (tstamps /6084D42A/))
      (tstamp 6093F399))
    (comp (ref R4)
      (value 50k)
      (footprint Resistor_SMD:R_0805_2012Metric)
      (datasheet ~)
      (libsource (lib Device) (part R) (description Resistor))
      (sheetpath (names /RMSToDC/) (tstamps /6084D42A/))
      (tstamp 609465D9))
    (comp (ref C16)
      (value 10uF)
      (footprint Capacitor_SMD:C_0805_2012Metric)
      (datasheet ~)
      (libsource (lib Device) (part C) (description "Unpolarized capacitor"))
      (sheetpath (names /RMSToDC/) (tstamps /6084D42A/))
      (tstamp 609485EA))
    (comp (ref C17)
      (value 0.1uF)
      (footprint Capacitor_SMD:C_0805_2012Metric)
      (datasheet ~)
      (libsource (lib Device) (part C) (description "Unpolarized capacitor"))
      (sheetpath (names /RMSToDC/) (tstamps /6084D42A/))
      (tstamp 609425E7))
    (comp (ref C18)
      (value 0.1uF)
      (footprint Capacitor_SMD:C_0805_2012Metric)
      (datasheet ~)
      (libsource (lib Device) (part C) (description "Unpolarized capacitor"))
      (sheetpath (names /RMSToDC/) (tstamps /6084D42A/))
      (tstamp 60972D60))
    (comp (ref C12)
      (value 0.1uF)
      (footprint Capacitor_SMD:C_0805_2012Metric)
      (datasheet ~)
      (libsource (lib Device) (part C) (description "Unpolarized capacitor"))
      (sheetpath (names /RMSToDC/) (tstamps /6084D42A/))
      (tstamp 60973BDE))
    (comp (ref J13)
      (value Conn_Coaxial)
      (footprint noise:lemo_epb00250ntn)
      (datasheet " ~")
      (libsource (lib Connector) (part Conn_Coaxial) (description "coaxial connector (BNC, SMA, SMB, SMC, Cinch/RCA, ...)"))
      (sheetpath (names /RMSToDC/) (tstamps /6084D42A/))
      (tstamp 6096FA6F))
    (comp (ref C14)
      (value 10uF)
      (footprint Capacitor_SMD:C_0805_2012Metric)
      (datasheet ~)
      (libsource (lib Device) (part C) (description "Unpolarized capacitor"))
      (sheetpath (names /RMSToDC/) (tstamps /6084D42A/))
      (tstamp 609474DF))
    (comp (ref R5)
      (value 1k)
      (footprint Resistor_SMD:R_0805_2012Metric)
      (datasheet ~)
      (libsource (lib Device) (part R) (description Resistor))
      (sheetpath (names /RMSToDC/) (tstamps /6084D42A/))
      (tstamp 60946C5D))
    (comp (ref U9)
      (value MAX6070AAUT18+T)
      (footprint Package_TO_SOT_SMD:TSOT-23-6)
      (libsource (lib noise) (part MAX6070AAUT18+T) (description ""))
      (sheetpath (names /ADC/) (tstamps /60988BBA/))
      (tstamp 60B6A001))
    (comp (ref R6)
      (value 10k)
      (footprint Resistor_SMD:R_0805_2012Metric)
      (datasheet ~)
      (libsource (lib Device) (part R) (description Resistor))
      (sheetpath (names /ADC/) (tstamps /60988BBA/))
      (tstamp 60B6E18E))
    (comp (ref C19)
      (value 0.1uF)
      (footprint Capacitor_SMD:C_0805_2012Metric)
      (datasheet ~)
      (libsource (lib Device) (part C) (description "Unpolarized capacitor"))
      (sheetpath (names /ADC/) (tstamps /60988BBA/))
      (tstamp 60B71065))
    (comp (ref C21)
      (value 0.1uF)
      (footprint Capacitor_SMD:C_0805_2012Metric)
      (datasheet ~)
      (libsource (lib Device) (part C) (description "Unpolarized capacitor"))
      (sheetpath (names /ADC/) (tstamps /60988BBA/))
      (tstamp 60B74BA6))
    (comp (ref C20)
      (value 0.1uF)
      (footprint Capacitor_SMD:C_0805_2012Metric)
      (datasheet ~)
      (libsource (lib Device) (part C) (description "Unpolarized capacitor"))
      (sheetpath (names /ADC/) (tstamps /60988BBA/))
      (tstamp 60B79379))
    (comp (ref C23)
      (value 0.1uF)
      (footprint Capacitor_SMD:C_0805_2012Metric)
      (datasheet ~)
      (libsource (lib Device) (part C) (description "Unpolarized capacitor"))
      (sheetpath (names /ADC/) (tstamps /60988BBA/))
      (tstamp 60B7D1D2))
    (comp (ref C22)
      (value 10uF)
      (footprint Capacitor_SMD:C_0805_2012Metric)
      (datasheet ~)
      (libsource (lib Device) (part C) (description "Unpolarized capacitor"))
      (sheetpath (names /ADC/) (tstamps /60988BBA/))
      (tstamp 60B7D38C))
    (comp (ref U10)
      (value AD7997)
      (footprint Package_SO:TSSOP-20_4.4x6.5mm_P0.65mm)
      (libsource (lib noise) (part AD7997) (description ""))
      (sheetpath (names /ADC/) (tstamps /60988BBA/))
      (tstamp 609527B7)))
  (libparts
    (libpart (lib Connector) (part Conn_Coaxial)
      (description "coaxial connector (BNC, SMA, SMB, SMC, Cinch/RCA, ...)")
      (docs " ~")
      (footprints
        (fp *BNC*)
        (fp *SMA*)
        (fp *SMB*)
        (fp *SMC*)
        (fp *Cinch*))
      (fields
        (field (name Reference) J)
        (field (name Value) Conn_Coaxial))
      (pins
        (pin (num 1) (name In) (type passive))
        (pin (num 2) (name Ext) (type passive))))
    (libpart (lib Connector_Generic) (part Conn_02x02_Odd_Even)
      (description "Generic connector, double row, 02x02, odd/even pin numbering scheme (row 1 odd numbers, row 2 even numbers), script generated (kicad-library-utils/schlib/autogen/connector/)")
      (docs ~)
      (footprints
        (fp Connector*:*_2x??_*))
      (fields
        (field (name Reference) J)
        (field (name Value) Conn_02x02_Odd_Even))
      (pins
        (pin (num 1) (name Pin_1) (type passive))
        (pin (num 2) (name Pin_2) (type passive))
        (pin (num 3) (name Pin_3) (type passive))
        (pin (num 4) (name Pin_4) (type passive))))
    (libpart (lib Device) (part C)
      (description "Unpolarized capacitor")
      (docs ~)
      (footprints
        (fp C_*))
      (fields
        (field (name Reference) C)
        (field (name Value) C))
      (pins
        (pin (num 1) (name ~) (type passive))
        (pin (num 2) (name ~) (type passive))))
    (libpart (lib Device) (part R)
      (description Resistor)
      (docs ~)
      (footprints
        (fp R_*))
      (fields
        (field (name Reference) R)
        (field (name Value) R))
      (pins
        (pin (num 1) (name ~) (type passive))
        (pin (num 2) (name ~) (type passive))))
    (libpart (lib Regulator_Linear) (part ADP7182AUJZ-1.8)
      (aliases
        (alias ADP7182AUJZ-2.5)
        (alias ADP7182AUJZ-3.3)
        (alias ADP7182AUJZ-5.0))
      (description "200mA, Low Noise, CMOS Low Dropout Regulator, Negative, -1.8V Fixed Output, TSOT-23-5")
      (docs https://www.analog.com/media/en/technical-documentation/data-sheets/ADP7182.pdf)
      (footprints
        (fp TSOT?23*))
      (fields
        (field (name Reference) U)
        (field (name Value) ADP7182AUJZ-1.8)
        (field (name Footprint) Package_TO_SOT_SMD:TSOT-23-5))
      (pins
        (pin (num 1) (name GND) (type power_in))
        (pin (num 2) (name VIN) (type power_in))
        (pin (num 3) (name EN) (type input))
        (pin (num 4) (name NC) (type NotConnected))
        (pin (num 5) (name VOUT) (type power_out))))
    (libpart (lib dk_PMIC-RMS-to-DC-Converters) (part LTC1968CMS8_PBF)
      (description "IC CONVERTER RMS-DC PREC 8MSOP")
      (docs http://www.linear.com/docs/5090)
      (fields
        (field (name Reference) U)
        (field (name Value) LTC1968CMS8_PBF)
        (field (name Footprint) digikey-footprints:TSSOP-8_W3mm)
        (field (name Datasheet) http://www.linear.com/docs/5090)
        (field (name Digi-Key_PN) LTC1968CMS8#PBF-ND)
        (field (name MPN) LTC1968CMS8#PBF)
        (field (name Category) "Integrated Circuits (ICs)")
        (field (name Family) "PMIC - RMS to DC Converters")
        (field (name DK_Datasheet_Link) http://www.linear.com/docs/5090)
        (field (name DK_Detail_Page) /product-detail/en/linear-technology-analog-devices/LTC1968CMS8-PBF/LTC1968CMS8-PBF-ND/963602)
        (field (name Description) "IC CONVERTER RMS-DC PREC 8MSOP")
        (field (name Manufacturer) "Linear Technology/Analog Devices")
        (field (name Status) Active))
      (pins
        (pin (num 1) (name GND) (type power_in))
        (pin (num 2) (name IN1) (type input))
        (pin (num 3) (name IN2) (type input))
        (pin (num 4) (name NC) (type NotConnected))
        (pin (num 5) (name VOUT) (type power_out))
        (pin (num 6) (name OUT_RTN) (type output))
        (pin (num 7) (name V+) (type power_in))
        (pin (num 8) (name ~ENABLE) (type input))))
    (libpart (lib noise) (part AD7997)
      (footprints
        (fp tssop-20))
      (fields
        (field (name Reference) U)
        (field (name Value) AD7997)
        (field (name Footprint) TSSOP-20))
      (pins
        (pin (num 1) (name AGND) (type passive))
        (pin (num 2) (name VDD) (type power_in))
        (pin (num 3) (name AGND) (type passive))
        (pin (num 4) (name AGND) (type passive))
        (pin (num 5) (name VDD) (type power_in))
        (pin (num 6) (name REFIN) (type input))
        (pin (num 7) (name VIN1) (type input))
        (pin (num 8) (name VIN3) (type input))
        (pin (num 9) (name VIN5) (type input))
        (pin (num 10) (name VIN7) (type input))
        (pin (num 11) (name VIN8) (type input))
        (pin (num 12) (name VIN6) (type input))
        (pin (num 13) (name VIN4) (type input))
        (pin (num 14) (name VIN2) (type input))
        (pin (num 15) (name AS) (type input))
        (pin (num 16) (name ~CONVST) (type input))
        (pin (num 17) (name ALERT/BUSY) (type output))
        (pin (num 18) (name SDA) (type BiDi))
        (pin (num 19) (name SCL) (type input))
        (pin (num 20) (name AGND) (type passive))))
    (libpart (lib noise) (part ADP123)
      (fields
        (field (name Reference) U)
        (field (name Value) ADP123))
      (pins
        (pin (num 1) (name VIN) (type input))
        (pin (num 2) (name GND) (type passive))
        (pin (num 3) (name EN) (type input))
        (pin (num 4) (name ADJ) (type input))
        (pin (num 5) (name VOUT) (type output))))
    (libpart (lib noise) (part LTC6268xS8-10)
      (footprints
        (fp SO*3.9x4.9mm*P1.27mm*))
      (fields
        (field (name Reference) U)
        (field (name Value) LTC6268xS8-10)
        (field (name Footprint) Package_SO:SO-8_3.9x4.9mm_P1.27mm))
      (pins
        (pin (num 1) (name NC) (type passive))
        (pin (num 2) (name -) (type input))
        (pin (num 3) (name +) (type input))
        (pin (num 4) (name NC) (type passive))
        (pin (num 5) (name V-) (type power_in))
        (pin (num 6) (name ~) (type output))
        (pin (num 7) (name V+) (type power_in))
        (pin (num 8) (name ~SHDN) (type input))))
    (libpart (lib noise) (part MAX4704EUB+)
      (footprints
        (fp 21-0061L)
        (fp 21-0061L-M)
        (fp 21-0061L-L))
      (fields
        (field (name Reference) U)
        (field (name Value) MAX4704EUB+)
        (field (name Footprint) 21-0061L))
      (pins
        (pin (num 1) (name NO2) (type unspc))
        (pin (num 2) (name NO3) (type unspc))
        (pin (num 3) (name NO1) (type unspc))
        (pin (num 4) (name INH) (type unspc))
        (pin (num 5) (name GND) (type power_in))
        (pin (num 6) (name ADDB) (type unspc))
        (pin (num 7) (name ADDA) (type unspc))
        (pin (num 8) (name NO0) (type unspc))
        (pin (num 9) (name COM) (type unspc))
        (pin (num 10) (name V+) (type power_in))))
    (libpart (lib noise) (part MAX6070AAUT18+T)
      (footprints
        (fp 21-0058I_MXM)
        (fp 21-0058I_MXM-M)
        (fp 21-0058I_MXM-L))
      (fields
        (field (name Reference) U)
        (field (name Value) MAX6070AAUT18+T)
        (field (name Footprint) 21-0058I_MXM))
      (pins
        (pin (num 1) (name FILTER) (type input))
        (pin (num 2) (name GND) (type power_in))
        (pin (num 3) (name EN) (type BiDi))
        (pin (num 4) (name IN) (type input))
        (pin (num 5) (name OUTS) (type output))
        (pin (num 6) (name OUTF) (type output))))
    (libpart (lib noise) (part MCP23009-x_SS)
      (footprints
        (fp SSOP20_MC_MCH)
        (fp SSOP20_MC_MCH-M)
        (fp SSOP20_MC_MCH-L))
      (fields
        (field (name Reference) U)
        (field (name Value) MCP23009-x_SS)
        (field (name Footprint) SSOP20_MC_MCH))
      (pins
        (pin (num 1) (name VDD) (type power_in))
        (pin (num 2) (name NC) (type NotConnected))
        (pin (num 3) (name SCL) (type input))
        (pin (num 4) (name SDA) (type BiDi))
        (pin (num 5) (name ADDR) (type input))
        (pin (num 6) (name ~RESET) (type input))
        (pin (num 7) (name INT) (type output))
        (pin (num 8) (name GP0) (type BiDi))
        (pin (num 9) (name GP1) (type BiDi))
        (pin (num 10) (name NC) (type NotConnected))
        (pin (num 11) (name NC) (type NotConnected))
        (pin (num 12) (name GP2) (type BiDi))
        (pin (num 13) (name GP3) (type BiDi))
        (pin (num 14) (name GP4) (type BiDi))
        (pin (num 15) (name GP5) (type BiDi))
        (pin (num 16) (name GP6) (type BiDi))
        (pin (num 17) (name GP7) (type BiDi))
        (pin (num 18) (name NC) (type NotConnected))
        (pin (num 19) (name NC) (type NotConnected))
        (pin (num 20) (name VSS) (type power_in))))
    (libpart (lib noise) (part QWIIC)
      (footprints
        (fp *1X04_1MM_RA*))
      (fields
        (field (name Reference) J)
        (field (name Value) QWIIC)
        (field (name Footprint) 1X04_1MM_RA)
        (field (name Field4) CONN-13729))
      (pins
        (pin (num 1) (name GND) (type power_in))
        (pin (num 2) (name VCC) (type power_in))
        (pin (num 3) (name SDA) (type passive))
        (pin (num 4) (name SCL) (type passive)))))
  (libraries
    (library (logical Connector)
      (uri /home/zhicai/Documents/kicad-symbols-master/Connector.lib))
    (library (logical Connector_Generic)
      (uri /home/zhicai/Documents/kicad-symbols-master/Connector_Generic.lib))
    (library (logical Device)
      (uri /home/zhicai/Documents/kicad-symbols-master/Device.lib))
    (library (logical Regulator_Linear)
      (uri /home/zhicai/Documents/kicad-symbols-master/Regulator_Linear.lib))
    (library (logical dk_PMIC-RMS-to-DC-Converters)
      (uri /home/zhicai/Documents/digikey-kicad-library/digikey-symbols/dk_PMIC-RMS-to-DC-Converters.lib))
    (library (logical noise)
      (uri /home/zhicai/gDrive/silicon/rtx_git/dc_noise_measurement/noise.lib)))
  (nets
    (net (code 1) (name /SCL)
      (node (ref J12) (pin 4))
      (node (ref U4) (pin 3))
      (node (ref U10) (pin 19)))
    (net (code 2) (name /SDA)
      (node (ref U4) (pin 4))
      (node (ref J12) (pin 3))
      (node (ref U10) (pin 18)))
    (net (code 3) (name /RMSout)
      (node (ref U10) (pin 7))
      (node (ref C16) (pin 1))
      (node (ref U7) (pin 5)))
    (net (code 4) (name /VIN)
      (node (ref U6) (pin 9))
      (node (ref U3) (pin 9))
      (node (ref U5) (pin 9))
      (node (ref C14) (pin 2)))
    (net (code 5) (name GND)
      (node (ref U1) (pin 2))
      (node (ref C21) (pin 2))
      (node (ref J6) (pin 2))
      (node (ref J6) (pin 1))
      (node (ref J4) (pin 2))
      (node (ref J4) (pin 1))
      (node (ref J9) (pin 3))
      (node (ref J3) (pin 4))
      (node (ref U10) (pin 3))
      (node (ref J1) (pin 3))
      (node (ref J1) (pin 4))
      (node (ref J3) (pin 3))
      (node (ref U10) (pin 20))
      (node (ref U10) (pin 16))
      (node (ref U10) (pin 15))
      (node (ref U10) (pin 4))
      (node (ref J7) (pin 3))
      (node (ref J5) (pin 4))
      (node (ref J5) (pin 3))
      (node (ref J11) (pin 1))
      (node (ref J11) (pin 2))
      (node (ref J7) (pin 4))
      (node (ref C3) (pin 2))
      (node (ref C4) (pin 2))
      (node (ref U2) (pin 1))
      (node (ref J12) (pin 1))
      (node (ref R2) (pin 2))
      (node (ref J2) (pin 2))
      (node (ref J2) (pin 1))
      (node (ref U10) (pin 1))
      (node (ref C1) (pin 2))
      (node (ref J9) (pin 4))
      (node (ref C2) (pin 2))
      (node (ref U4) (pin 5))
      (node (ref C17) (pin 1))
      (node (ref C18) (pin 1))
      (node (ref J13) (pin 2))
      (node (ref U4) (pin 20))
      (node (ref C6) (pin 2))
      (node (ref U6) (pin 5))
      (node (ref C5) (pin 2))
      (node (ref U3) (pin 5))
      (node (ref C22) (pin 2))
      (node (ref C7) (pin 2))
      (node (ref C20) (pin 2))
      (node (ref U5) (pin 5))
      (node (ref C23) (pin 2))
      (node (ref U9) (pin 2))
      (node (ref C12) (pin 1))
      (node (ref C16) (pin 2))
      (node (ref U7) (pin 3))
      (node (ref C8) (pin 2))
      (node (ref U7) (pin 6))
      (node (ref U8) (pin 3))
      (node (ref J10) (pin 1))
      (node (ref C19) (pin 2))
      (node (ref J10) (pin 2))
      (node (ref J8) (pin 1))
      (node (ref J8) (pin 2))
      (node (ref C13) (pin 1)))
    (net (code 6) (name "Net-(C15-Pad1)")
      (node (ref J13) (pin 1))
      (node (ref C15) (pin 1))
      (node (ref U7) (pin 2)))
    (net (code 7) (name "Net-(R4-Pad2)")
      (node (ref R4) (pin 2))
      (node (ref R5) (pin 1))
      (node (ref U8) (pin 2)))
    (net (code 8) (name "Net-(C14-Pad1)")
      (node (ref C14) (pin 1))
      (node (ref R5) (pin 2)))
    (net (code 9) (name "Net-(U8-Pad1)")
      (node (ref U8) (pin 1)))
    (net (code 10) (name "Net-(U8-Pad8)")
      (node (ref U8) (pin 8)))
    (net (code 11) (name -2V5)
      (node (ref U7) (pin 1))
      (node (ref C17) (pin 2))
      (node (ref U7) (pin 8))
      (node (ref U2) (pin 5))
      (node (ref C18) (pin 2))
      (node (ref C4) (pin 1))
      (node (ref U8) (pin 5)))
    (net (code 12) (name "Net-(U8-Pad4)")
      (node (ref U8) (pin 4)))
    (net (code 13) (name +2V5)
      (node (ref C2) (pin 1))
      (node (ref U8) (pin 7))
      (node (ref U7) (pin 7))
      (node (ref C13) (pin 2))
      (node (ref U1) (pin 5))
      (node (ref R1) (pin 1))
      (node (ref C12) (pin 2)))
    (net (code 14) (name "Net-(U7-Pad4)")
      (node (ref U7) (pin 4)))
    (net (code 15) (name "Net-(C15-Pad2)")
      (node (ref C15) (pin 2))
      (node (ref R4) (pin 1))
      (node (ref U8) (pin 6)))
    (net (code 16) (name +3V3)
      (node (ref R6) (pin 2))
      (node (ref R3) (pin 1))
      (node (ref U1) (pin 3))
      (node (ref C21) (pin 1))
      (node (ref U9) (pin 4))
      (node (ref U3) (pin 10))
      (node (ref U6) (pin 10))
      (node (ref U4) (pin 1))
      (node (ref C6) (pin 1))
      (node (ref C8) (pin 1))
      (node (ref U10) (pin 2))
      (node (ref C7) (pin 1))
      (node (ref U5) (pin 10))
      (node (ref C23) (pin 1))
      (node (ref C22) (pin 1))
      (node (ref C5) (pin 1))
      (node (ref U10) (pin 5))
      (node (ref U2) (pin 3))
      (node (ref J12) (pin 2)))
    (net (code 17) (name +5V)
      (node (ref J11) (pin 4))
      (node (ref U1) (pin 1))
      (node (ref C1) (pin 1)))
    (net (code 18) (name -5V)
      (node (ref U2) (pin 2))
      (node (ref J11) (pin 3))
      (node (ref C3) (pin 1)))
    (net (code 19) (name "Net-(R1-Pad2)")
      (node (ref U1) (pin 4))
      (node (ref R2) (pin 1))
      (node (ref R1) (pin 2)))
    (net (code 20) (name "Net-(U2-Pad4)")
      (node (ref U2) (pin 4)))
    (net (code 21) (name /Mux/A1)
      (node (ref U3) (pin 6))
      (node (ref U5) (pin 6))
      (node (ref U4) (pin 14))
      (node (ref U6) (pin 6)))
    (net (code 22) (name /Mux/EN0)
      (node (ref U4) (pin 8))
      (node (ref U6) (pin 4)))
    (net (code 23) (name "Net-(U4-Pad7)")
      (node (ref U4) (pin 7)))
    (net (code 24) (name "Net-(U3-Pad2)")
      (node (ref U3) (pin 2)))
    (net (code 25) (name "Net-(U3-Pad1)")
      (node (ref U3) (pin 1)))
    (net (code 26) (name /Mux/A0)
      (node (ref U5) (pin 7))
      (node (ref U6) (pin 7))
      (node (ref U3) (pin 7))
      (node (ref U4) (pin 13)))
    (net (code 27) (name /Mux/EN2)
      (node (ref U4) (pin 12))
      (node (ref U3) (pin 4)))
    (net (code 28) (name "Net-(U4-Pad2)")
      (node (ref U4) (pin 2)))
    (net (code 29) (name "Net-(R3-Pad2)")
      (node (ref U4) (pin 6))
      (node (ref R3) (pin 2)))
    (net (code 30) (name "Net-(U4-Pad19)")
      (node (ref U4) (pin 19)))
    (net (code 31) (name "Net-(U4-Pad18)")
      (node (ref U4) (pin 18)))
    (net (code 32) (name "Net-(U4-Pad17)")
      (node (ref U4) (pin 17)))
    (net (code 33) (name "Net-(U4-Pad16)")
      (node (ref U4) (pin 16)))
    (net (code 34) (name "Net-(U4-Pad15)")
      (node (ref U4) (pin 15)))
    (net (code 35) (name "Net-(U4-Pad11)")
      (node (ref U4) (pin 11)))
    (net (code 36) (name "Net-(U4-Pad10)")
      (node (ref U4) (pin 10)))
    (net (code 37) (name /Mux/EN1)
      (node (ref U4) (pin 9))
      (node (ref U5) (pin 4)))
    (net (code 38) (name "Net-(U10-Pad10)")
      (node (ref U10) (pin 10)))
    (net (code 39) (name "Net-(U10-Pad13)")
      (node (ref U10) (pin 13)))
    (net (code 40) (name "Net-(U10-Pad8)")
      (node (ref U10) (pin 8)))
    (net (code 41) (name "Net-(U10-Pad14)")
      (node (ref U10) (pin 14)))
    (net (code 42) (name "Net-(U10-Pad11)")
      (node (ref U10) (pin 11)))
    (net (code 43) (name "Net-(U10-Pad12)")
      (node (ref U10) (pin 12)))
    (net (code 44) (name "Net-(U10-Pad9)")
      (node (ref U10) (pin 9)))
    (net (code 45) (name "Net-(U10-Pad17)")
      (node (ref U10) (pin 17)))
    (net (code 46) (name "Net-(C19-Pad1)")
      (node (ref C19) (pin 1))
      (node (ref U9) (pin 1)))
    (net (code 47) (name "Net-(R6-Pad1)")
      (node (ref R6) (pin 1))
      (node (ref U9) (pin 3)))
    (net (code 48) (name +1V8)
      (node (ref C20) (pin 1))
      (node (ref U9) (pin 5))
      (node (ref U10) (pin 6))
      (node (ref U9) (pin 6)))
    (net (code 49) (name /Connectors/VIN0)
      (node (ref J1) (pin 1))
      (node (ref J1) (pin 2))
      (node (ref U6) (pin 1)))
    (net (code 50) (name /Connectors/VIN9)
      (node (ref U3) (pin 8))
      (node (ref J10) (pin 3))
      (node (ref J10) (pin 4)))
    (net (code 51) (name /Connectors/VIN8)
      (node (ref U3) (pin 3))
      (node (ref J9) (pin 2))
      (node (ref J9) (pin 1)))
    (net (code 52) (name /Connectors/VIN7)
      (node (ref J8) (pin 3))
      (node (ref J8) (pin 4))
      (node (ref U5) (pin 8)))
    (net (code 53) (name /Connectors/VIN6)
      (node (ref J7) (pin 2))
      (node (ref J7) (pin 1))
      (node (ref U5) (pin 3)))
    (net (code 54) (name /Connectors/VIN5)
      (node (ref U5) (pin 2))
      (node (ref J6) (pin 4))
      (node (ref J6) (pin 3)))
    (net (code 55) (name /Connectors/VIN4)
      (node (ref U5) (pin 1))
      (node (ref J5) (pin 2))
      (node (ref J5) (pin 1)))
    (net (code 56) (name /Connectors/VIN3)
      (node (ref U6) (pin 8))
      (node (ref J4) (pin 3))
      (node (ref J4) (pin 4)))
    (net (code 57) (name /Connectors/VIN2)
      (node (ref U6) (pin 3))
      (node (ref J3) (pin 2))
      (node (ref J3) (pin 1)))
    (net (code 58) (name /Connectors/VIN1)
      (node (ref J2) (pin 4))
      (node (ref J2) (pin 3))
      (node (ref U6) (pin 2)))))