EESchema Schematic File Version 4
EELAYER 30 0
EELAYER END
$Descr A4 11693 8268
encoding utf-8
Sheet 3 5
Title "DC Noise Measurement Board"
Date "2021-04-28"
Rev "v1"
Comp "LBNL"
Comment1 "Zhicai Zhang"
Comment2 ""
Comment3 ""
Comment4 ""
$EndDescr
Entry Wire Line
	10700 1050 10800 1150
Entry Wire Line
	10700 1250 10800 1350
Entry Wire Line
	10700 1450 10800 1550
Entry Wire Line
	10700 1650 10800 1750
Entry Wire Line
	10700 1850 10800 1950
Entry Wire Line
	10700 2050 10800 2150
Entry Wire Line
	10700 2250 10800 2350
Entry Wire Line
	10700 2450 10800 2550
Entry Wire Line
	10700 2650 10800 2750
Entry Wire Line
	10700 2850 10800 2950
Text HLabel 10650 3120 0    50   Input ~ 0
VIN[0..9]
Wire Bus Line
	10650 3120 10800 3120
Text Label 10590 1050 2    50   ~ 0
VIN0
Wire Wire Line
	10700 1050 10590 1050
Text Label 10590 1250 2    50   ~ 0
VIN1
Wire Wire Line
	10700 1250 10590 1250
Text Label 10590 1450 2    50   ~ 0
VIN2
Wire Wire Line
	10700 1450 10590 1450
Text Label 10590 1650 2    50   ~ 0
VIN3
Wire Wire Line
	10700 1650 10590 1650
Text Label 10590 1850 2    50   ~ 0
VIN4
Wire Wire Line
	10700 1850 10590 1850
Text Label 10590 2050 2    50   ~ 0
VIN5
Wire Wire Line
	10700 2050 10590 2050
Text Label 10590 2250 2    50   ~ 0
VIN6
Wire Wire Line
	10700 2250 10590 2250
Text Label 10590 2450 2    50   ~ 0
VIN7
Wire Wire Line
	10700 2450 10590 2450
Text Label 10590 2650 2    50   ~ 0
VIN8
Wire Wire Line
	10700 2650 10590 2650
Text Label 10590 2850 2    50   ~ 0
VIN9
Wire Wire Line
	10700 2850 10590 2850
$Comp
L noise:MCP23009-x_SS U?
U 1 1 60A5EDCB
P 6900 3050
AR Path="/60A5EDCB" Ref="U?"  Part="1" 
AR Path="/60988A7C/60A5EDCB" Ref="U4"  Part="1" 
F 0 "U4" H 7500 3437 60  0000 C CNN
F 1 "MCP23009-x_SS" H 7500 3331 60  0000 C CNN
F 2 "noise:SSOP-20_5.3x7.2mm_P0.65mm" H 7500 3250 60  0001 C CNN
F 3 "" H 6900 3050 60  0000 C CNN
	1    6900 3050
	1    0    0    -1  
$EndComp
Text HLabel 3360 1230 1    50   Output ~ 0
VIN
Wire Wire Line
	3360 1430 3360 1230
Text Label 3560 2780 3    50   ~ 0
EN2
Wire Wire Line
	3560 2580 3560 2780
Text Label 3460 2780 3    50   ~ 0
VIN8
Text Label 3460 1230 1    50   ~ 0
VIN9
Wire Wire Line
	3460 2580 3460 2780
Wire Wire Line
	3460 1430 3460 1230
$Comp
L Device:C C6
U 1 1 60AD729A
P 2750 1610
F 0 "C6" H 2750 1710 50  0000 L CNN
F 1 "0.1uF" H 2750 1510 50  0000 L CNN
F 2 "Capacitor_SMD:C_0805_2012Metric" H 2788 1460 50  0001 C CNN
F 3 "~" H 2750 1610 50  0001 C CNN
	1    2750 1610
	1    0    0    -1  
$EndComp
$Comp
L power:GND #PWR021
U 1 1 60AD72A0
P 2750 1760
F 0 "#PWR021" H 2750 1510 50  0001 C CNN
F 1 "GND" V 2755 1632 50  0000 R CNN
F 2 "" H 2750 1760 50  0001 C CNN
F 3 "" H 2750 1760 50  0001 C CNN
	1    2750 1760
	1    0    0    -1  
$EndComp
$Comp
L power:+3V3 #PWR023
U 1 1 60B1C92B
P 5900 3000
F 0 "#PWR023" H 5900 2850 50  0001 C CNN
F 1 "+3V3" H 5915 3173 50  0000 C CNN
F 2 "" H 5900 3000 50  0001 C CNN
F 3 "" H 5900 3000 50  0001 C CNN
	1    5900 3000
	1    0    0    -1  
$EndComp
$Comp
L Device:C C7
U 1 1 60B206CD
P 5900 3250
F 0 "C7" H 5900 3350 50  0000 L CNN
F 1 "0.1uF" H 5900 3150 50  0000 L CNN
F 2 "Capacitor_SMD:C_0805_2012Metric" H 5938 3100 50  0001 C CNN
F 3 "~" H 5900 3250 50  0001 C CNN
	1    5900 3250
	1    0    0    -1  
$EndComp
$Comp
L power:GND #PWR026
U 1 1 60B206D3
P 5900 3400
F 0 "#PWR026" H 5900 3150 50  0001 C CNN
F 1 "GND" V 5905 3272 50  0000 R CNN
F 2 "" H 5900 3400 50  0001 C CNN
F 3 "" H 5900 3400 50  0001 C CNN
	1    5900 3400
	1    0    0    -1  
$EndComp
Wire Wire Line
	6900 3050 5900 3050
Wire Wire Line
	5900 3050 5900 3000
Wire Wire Line
	5900 3100 5900 3050
Connection ~ 5900 3050
$Comp
L power:GND #PWR024
U 1 1 60B28B25
P 8300 3050
F 0 "#PWR024" H 8300 2800 50  0001 C CNN
F 1 "GND" V 8305 2922 50  0000 R CNN
F 2 "" H 8300 3050 50  0001 C CNN
F 3 "" H 8300 3050 50  0001 C CNN
	1    8300 3050
	0    -1   -1   0   
$EndComp
Wire Wire Line
	8300 3050 8100 3050
Text HLabel 6750 3250 0    50   Input ~ 0
SCL
Text HLabel 6750 3350 0    50   Input ~ 0
SDA
$Comp
L power:GND #PWR027
U 1 1 60B30B7A
P 6750 3450
F 0 "#PWR027" H 6750 3200 50  0001 C CNN
F 1 "GND" V 6755 3322 50  0000 R CNN
F 2 "" H 6750 3450 50  0001 C CNN
F 3 "" H 6750 3450 50  0001 C CNN
	1    6750 3450
	0    1    1    0   
$EndComp
$Comp
L power:+3V3 #PWR022
U 1 1 60B34367
P 6250 2900
F 0 "#PWR022" H 6250 2750 50  0001 C CNN
F 1 "+3V3" H 6265 3073 50  0000 C CNN
F 2 "" H 6250 2900 50  0001 C CNN
F 3 "" H 6250 2900 50  0001 C CNN
	1    6250 2900
	1    0    0    -1  
$EndComp
$Comp
L Device:R R3
U 1 1 60B362BE
P 6250 3300
F 0 "R3" V 6350 3250 50  0000 L CNN
F 1 "10k" V 6250 3250 50  0000 L CNN
F 2 "Resistor_SMD:R_0805_2012Metric" V 6180 3300 50  0001 C CNN
F 3 "~" H 6250 3300 50  0001 C CNN
	1    6250 3300
	1    0    0    -1  
$EndComp
Wire Wire Line
	6250 2900 6250 3150
Wire Wire Line
	6250 3450 6250 3550
Wire Wire Line
	6250 3550 6900 3550
NoConn ~ 6900 3650
Wire Wire Line
	6900 3250 6750 3250
Wire Wire Line
	6900 3350 6750 3350
Wire Wire Line
	6900 3450 6750 3450
Text Label 6750 3750 2    50   ~ 0
EN0
Text Label 6750 3850 2    50   ~ 0
EN1
Text Label 8250 3850 0    50   ~ 0
EN2
Text Label 8250 3750 0    50   ~ 0
A0
Text Label 8250 3650 0    50   ~ 0
A1
Wire Wire Line
	6900 3750 6750 3750
Wire Wire Line
	6900 3850 6750 3850
Wire Wire Line
	8250 3650 8100 3650
Wire Wire Line
	8250 3750 8100 3750
Wire Wire Line
	8250 3850 8100 3850
NoConn ~ 8100 3350
NoConn ~ 8100 3450
NoConn ~ 8100 3550
Wire Wire Line
	3660 1430 3660 1230
Text Label 3660 1230 1    50   ~ 0
A1
$Comp
L power:GND #PWR0111
U 1 1 60D1933A
P 3660 2640
F 0 "#PWR0111" H 3660 2390 50  0001 C CNN
F 1 "GND" H 3665 2467 50  0000 C CNN
F 2 "" H 3660 2640 50  0001 C CNN
F 3 "" H 3660 2640 50  0001 C CNN
	1    3660 2640
	1    0    0    -1  
$EndComp
Wire Wire Line
	3660 2580 3660 2640
$Comp
L power:+3V3 #PWR0118
U 1 1 60D3CF7D
P 2750 1300
F 0 "#PWR0118" H 2750 1150 50  0001 C CNN
F 1 "+3V3" H 2765 1473 50  0000 C CNN
F 2 "" H 2750 1300 50  0001 C CNN
F 3 "" H 2750 1300 50  0001 C CNN
	1    2750 1300
	1    0    0    -1  
$EndComp
$Comp
L noise:MAX4704EUB+ U3
U 1 1 60DDC652
P 3260 2580
F 0 "U3" V 3888 1952 60  0000 R CNN
F 1 "MAX4704EUB+" V 3782 1952 60  0000 R CNN
F 2 "digikey-footprints:MSOP-10_W3mm" H 3860 2820 60  0001 C CNN
F 3 "" H 3260 2580 60  0000 C CNN
	1    3260 2580
	0    -1   -1   0   
$EndComp
Wire Wire Line
	3560 1430 3560 1230
Text Label 3560 1230 1    50   ~ 0
A0
Wire Wire Line
	2750 1300 2750 1430
Wire Wire Line
	3260 1430 2750 1430
Connection ~ 2750 1430
Wire Wire Line
	2750 1430 2750 1460
Text HLabel 3400 3400 1    50   Output ~ 0
VIN
Wire Wire Line
	3400 3600 3400 3400
Text Label 3600 4950 3    50   ~ 0
EN1
Wire Wire Line
	3600 4750 3600 4950
Text Label 3500 4950 3    50   ~ 0
VIN6
Text Label 3400 4950 3    50   ~ 0
VIN5
Text Label 3500 3400 1    50   ~ 0
VIN7
Text Label 3300 4950 3    50   ~ 0
VIN4
Wire Wire Line
	3500 4750 3500 4950
Wire Wire Line
	3400 4750 3400 4950
Wire Wire Line
	3500 3600 3500 3400
Wire Wire Line
	3300 4750 3300 4950
$Comp
L Device:C C5
U 1 1 60E66B71
P 2790 3780
F 0 "C5" H 2790 3880 50  0000 L CNN
F 1 "0.1uF" H 2790 3680 50  0000 L CNN
F 2 "Capacitor_SMD:C_0805_2012Metric" H 2828 3630 50  0001 C CNN
F 3 "~" H 2790 3780 50  0001 C CNN
	1    2790 3780
	1    0    0    -1  
$EndComp
$Comp
L power:GND #PWR018
U 1 1 60E66B77
P 2790 3930
F 0 "#PWR018" H 2790 3680 50  0001 C CNN
F 1 "GND" V 2795 3802 50  0000 R CNN
F 2 "" H 2790 3930 50  0001 C CNN
F 3 "" H 2790 3930 50  0001 C CNN
	1    2790 3930
	1    0    0    -1  
$EndComp
Wire Wire Line
	3700 3600 3700 3400
Text Label 3700 3400 1    50   ~ 0
A1
$Comp
L power:GND #PWR019
U 1 1 60E66B7F
P 3700 4810
F 0 "#PWR019" H 3700 4560 50  0001 C CNN
F 1 "GND" H 3705 4637 50  0000 C CNN
F 2 "" H 3700 4810 50  0001 C CNN
F 3 "" H 3700 4810 50  0001 C CNN
	1    3700 4810
	1    0    0    -1  
$EndComp
Wire Wire Line
	3700 4750 3700 4810
$Comp
L power:+3V3 #PWR017
U 1 1 60E66B86
P 2790 3470
F 0 "#PWR017" H 2790 3320 50  0001 C CNN
F 1 "+3V3" H 2805 3643 50  0000 C CNN
F 2 "" H 2790 3470 50  0001 C CNN
F 3 "" H 2790 3470 50  0001 C CNN
	1    2790 3470
	1    0    0    -1  
$EndComp
$Comp
L noise:MAX4704EUB+ U5
U 1 1 60E66B8C
P 3300 4750
F 0 "U5" V 3928 4122 60  0000 R CNN
F 1 "MAX4704EUB+" V 3822 4122 60  0000 R CNN
F 2 "digikey-footprints:MSOP-10_W3mm" H 3900 4990 60  0001 C CNN
F 3 "" H 3300 4750 60  0000 C CNN
	1    3300 4750
	0    -1   -1   0   
$EndComp
Wire Wire Line
	3600 3600 3600 3400
Text Label 3600 3400 1    50   ~ 0
A0
Wire Wire Line
	2790 3470 2790 3600
Wire Wire Line
	3300 3600 2790 3600
Connection ~ 2790 3600
Wire Wire Line
	2790 3600 2790 3630
Text HLabel 3430 5500 1    50   Output ~ 0
VIN
Wire Wire Line
	3430 5700 3430 5500
Text Label 3630 7050 3    50   ~ 0
EN0
Wire Wire Line
	3630 6850 3630 7050
Text Label 3530 7050 3    50   ~ 0
VIN2
Text Label 3430 7050 3    50   ~ 0
VIN1
Text Label 3530 5500 1    50   ~ 0
VIN3
Text Label 3330 7050 3    50   ~ 0
VIN0
Wire Wire Line
	3530 6850 3530 7050
Wire Wire Line
	3430 6850 3430 7050
Wire Wire Line
	3530 5700 3530 5500
Wire Wire Line
	3330 6850 3330 7050
$Comp
L Device:C C8
U 1 1 60E68D94
P 2820 5880
F 0 "C8" H 2820 5980 50  0000 L CNN
F 1 "0.1uF" H 2820 5780 50  0000 L CNN
F 2 "Capacitor_SMD:C_0805_2012Metric" H 2858 5730 50  0001 C CNN
F 3 "~" H 2820 5880 50  0001 C CNN
	1    2820 5880
	1    0    0    -1  
$EndComp
$Comp
L power:GND #PWR025
U 1 1 60E68D9A
P 2820 6030
F 0 "#PWR025" H 2820 5780 50  0001 C CNN
F 1 "GND" V 2825 5902 50  0000 R CNN
F 2 "" H 2820 6030 50  0001 C CNN
F 3 "" H 2820 6030 50  0001 C CNN
	1    2820 6030
	1    0    0    -1  
$EndComp
Wire Wire Line
	3730 5700 3730 5500
Text Label 3730 5500 1    50   ~ 0
A1
$Comp
L power:GND #PWR028
U 1 1 60E68DA2
P 3730 6910
F 0 "#PWR028" H 3730 6660 50  0001 C CNN
F 1 "GND" H 3735 6737 50  0000 C CNN
F 2 "" H 3730 6910 50  0001 C CNN
F 3 "" H 3730 6910 50  0001 C CNN
	1    3730 6910
	1    0    0    -1  
$EndComp
Wire Wire Line
	3730 6850 3730 6910
$Comp
L power:+3V3 #PWR020
U 1 1 60E68DA9
P 2820 5570
F 0 "#PWR020" H 2820 5420 50  0001 C CNN
F 1 "+3V3" H 2835 5743 50  0000 C CNN
F 2 "" H 2820 5570 50  0001 C CNN
F 3 "" H 2820 5570 50  0001 C CNN
	1    2820 5570
	1    0    0    -1  
$EndComp
$Comp
L noise:MAX4704EUB+ U6
U 1 1 60E68DAF
P 3330 6850
F 0 "U6" V 3958 6222 60  0000 R CNN
F 1 "MAX4704EUB+" V 3852 6222 60  0000 R CNN
F 2 "digikey-footprints:MSOP-10_W3mm" H 3930 7090 60  0001 C CNN
F 3 "" H 3330 6850 60  0000 C CNN
	1    3330 6850
	0    -1   -1   0   
$EndComp
Wire Wire Line
	3630 5700 3630 5500
Text Label 3630 5500 1    50   ~ 0
A0
Wire Wire Line
	2820 5570 2820 5700
Wire Wire Line
	3330 5700 2820 5700
Connection ~ 2820 5700
Wire Wire Line
	2820 5700 2820 5730
NoConn ~ 3260 2580
NoConn ~ 3360 2580
Wire Bus Line
	10800 1000 10800 3120
$EndSCHEMATC
