EESchema Schematic File Version 4
EELAYER 30 0
EELAYER END
$Descr A4 11693 8268
encoding utf-8
Sheet 4 5
Title "DC Noise Measurement Board"
Date "2021-04-28"
Rev "v1"
Comp "LBNL"
Comment1 "Zhicai Zhang"
Comment2 ""
Comment3 ""
Comment4 ""
$EndDescr
$Comp
L dk_PMIC-RMS-to-DC-Converters:LTC1968CMS8_PBF U7
U 1 1 6084FCE3
P 7100 3300
F 0 "U7" H 6750 3350 60  0000 C CNN
F 1 "LTC1968CMS8_PBF" H 7450 3350 60  0000 C CNN
F 2 "digikey-footprints:TSSOP-8_W3mm" H 7300 3500 60  0001 L CNN
F 3 "http://www.linear.com/docs/5090" H 7300 3600 60  0001 L CNN
F 4 "LTC1968CMS8#PBF-ND" H 7300 3700 60  0001 L CNN "Digi-Key_PN"
F 5 "LTC1968CMS8#PBF" H 7300 3800 60  0001 L CNN "MPN"
F 6 "Integrated Circuits (ICs)" H 7300 3900 60  0001 L CNN "Category"
F 7 "PMIC - RMS to DC Converters" H 7300 4000 60  0001 L CNN "Family"
F 8 "http://www.linear.com/docs/5090" H 7300 4100 60  0001 L CNN "DK_Datasheet_Link"
F 9 "/product-detail/en/linear-technology-analog-devices/LTC1968CMS8-PBF/LTC1968CMS8-PBF-ND/963602" H 7300 4200 60  0001 L CNN "DK_Detail_Page"
F 10 "IC CONVERTER RMS-DC PREC 8MSOP" H 7300 4300 60  0001 L CNN "Description"
F 11 "Linear Technology/Analog Devices" H 7300 4400 60  0001 L CNN "Manufacturer"
F 12 "Active" H 7300 4500 60  0001 L CNN "Status"
	1    7100 3300
	1    0    0    -1  
$EndComp
$Comp
L noise:LTC6268xS8-10 U8
U 1 1 6084FCE9
P 4300 3400
F 0 "U8" H 4350 3550 50  0000 L CNN
F 1 "LTC6268xS8-10" H 4350 3200 50  0000 L CNN
F 2 "Package_SO:SO-8_3.9x4.9mm_P1.27mm" H 4300 2875 50  0001 C CNN
F 3 "https://www.analog.com/media/en/technical-documentation/data-sheets/626810f.pdf" H 2325 4125 50  0001 C CNN
	1    4300 3400
	1    0    0    -1  
$EndComp
$Comp
L Device:C C15
U 1 1 6093B3DD
P 5750 3400
F 0 "C15" V 5700 3500 50  0000 C CNN
F 1 "10uF" V 5700 3250 50  0000 C CNN
F 2 "Capacitor_SMD:C_0805_2012Metric" H 5788 3250 50  0001 C CNN
F 3 "~" H 5750 3400 50  0001 C CNN
	1    5750 3400
	0    1    1    0   
$EndComp
$Comp
L power:+2V5 #PWR038
U 1 1 6093D177
P 4200 2850
F 0 "#PWR038" H 4200 2700 50  0001 C CNN
F 1 "+2V5" H 4215 3023 50  0000 C CNN
F 2 "" H 4200 2850 50  0001 C CNN
F 3 "" H 4200 2850 50  0001 C CNN
	1    4200 2850
	1    0    0    -1  
$EndComp
$Comp
L power:-2V5 #PWR044
U 1 1 6093DC66
P 4200 4000
F 0 "#PWR044" H 4200 4100 50  0001 C CNN
F 1 "-2V5" H 4215 4173 50  0000 C CNN
F 2 "" H 4200 4000 50  0001 C CNN
F 3 "" H 4200 4000 50  0001 C CNN
	1    4200 4000
	-1   0    0    1   
$EndComp
Wire Wire Line
	4200 3700 4200 3850
$Comp
L power:GND #PWR040
U 1 1 6093EE33
P 4750 3150
F 0 "#PWR040" H 4750 2900 50  0001 C CNN
F 1 "GND" H 4755 2977 50  0000 C CNN
F 2 "" H 4750 3150 50  0001 C CNN
F 3 "" H 4750 3150 50  0001 C CNN
	1    4750 3150
	1    0    0    -1  
$EndComp
$Comp
L Device:C C13
U 1 1 6093F399
P 4500 2950
F 0 "C13" V 4450 3050 50  0000 C CNN
F 1 "0.1uF" V 4450 2800 50  0000 C CNN
F 2 "Capacitor_SMD:C_0805_2012Metric" H 4538 2800 50  0001 C CNN
F 3 "~" H 4500 2950 50  0001 C CNN
	1    4500 2950
	0    1    1    0   
$EndComp
Wire Wire Line
	4350 2950 4200 2950
Connection ~ 4200 2950
Wire Wire Line
	4200 2950 4200 2850
Wire Wire Line
	4650 2950 4750 2950
Wire Wire Line
	4350 3850 4200 3850
Connection ~ 4200 3850
Wire Wire Line
	4200 3850 4200 4000
Wire Wire Line
	4750 2950 4750 3150
$Comp
L power:-2V5 #PWR047
U 1 1 609454A8
P 7100 4400
F 0 "#PWR047" H 7100 4500 50  0001 C CNN
F 1 "-2V5" H 7115 4573 50  0000 C CNN
F 2 "" H 7100 4400 50  0001 C CNN
F 3 "" H 7100 4400 50  0001 C CNN
	1    7100 4400
	-1   0    0    1   
$EndComp
Wire Wire Line
	7000 3200 7000 2800
$Comp
L Device:R R4
U 1 1 609465D9
P 4390 4430
F 0 "R4" V 4290 4430 50  0000 C CNN
F 1 "50k" V 4390 4430 50  0000 C CNN
F 2 "Resistor_SMD:R_0805_2012Metric" V 4320 4430 50  0001 C CNN
F 3 "~" H 4390 4430 50  0001 C CNN
	1    4390 4430
	0    1    1    0   
$EndComp
$Comp
L Device:C C16
U 1 1 609485EA
P 8250 3550
F 0 "C16" H 8250 3650 50  0000 L CNN
F 1 "10uF" H 8250 3450 50  0000 L CNN
F 2 "Capacitor_SMD:C_0805_2012Metric" H 8288 3400 50  0001 C CNN
F 3 "~" H 8250 3550 50  0001 C CNN
	1    8250 3550
	1    0    0    -1  
$EndComp
Wire Wire Line
	4240 4430 3840 4430
Wire Wire Line
	4540 4430 5040 4430
Wire Wire Line
	7500 3600 7600 3600
Wire Wire Line
	7600 3600 7600 3750
Wire Wire Line
	7600 3750 8250 3750
Wire Wire Line
	8250 3750 8250 3700
Wire Wire Line
	7500 3500 7600 3500
Wire Wire Line
	7600 3500 7600 3350
Wire Wire Line
	7600 3350 8250 3350
Wire Wire Line
	8250 3350 8250 3400
Wire Wire Line
	4200 2950 4200 3100
NoConn ~ 4300 3100
$Comp
L power:GND #PWR041
U 1 1 6095172C
P 6500 3650
F 0 "#PWR041" H 6500 3400 50  0001 C CNN
F 1 "GND" H 6505 3477 50  0000 C CNN
F 2 "" H 6500 3650 50  0001 C CNN
F 3 "" H 6500 3650 50  0001 C CNN
	1    6500 3650
	1    0    0    -1  
$EndComp
Text HLabel 8250 3200 1    50   Output ~ 0
RMSout
Wire Wire Line
	8250 3350 8250 3200
Connection ~ 8250 3350
$Comp
L power:GND #PWR042
U 1 1 60955F51
P 8250 3850
F 0 "#PWR042" H 8250 3600 50  0001 C CNN
F 1 "GND" H 8255 3677 50  0000 C CNN
F 2 "" H 8250 3850 50  0001 C CNN
F 3 "" H 8250 3850 50  0001 C CNN
	1    8250 3850
	1    0    0    -1  
$EndComp
Wire Wire Line
	8250 3850 8250 3750
Connection ~ 8250 3750
Wire Wire Line
	6600 3500 6500 3500
$Comp
L power:+2V5 #PWR037
U 1 1 60944E9E
P 7000 2600
F 0 "#PWR037" H 7000 2450 50  0001 C CNN
F 1 "+2V5" H 7015 2773 50  0000 C CNN
F 2 "" H 7000 2600 50  0001 C CNN
F 3 "" H 7000 2600 50  0001 C CNN
	1    7000 2600
	1    0    0    -1  
$EndComp
Wire Wire Line
	4750 3850 4750 3900
Wire Wire Line
	4650 3850 4750 3850
$Comp
L power:GND #PWR043
U 1 1 60942B63
P 4750 3900
F 0 "#PWR043" H 4750 3650 50  0001 C CNN
F 1 "GND" H 4755 3727 50  0000 C CNN
F 2 "" H 4750 3900 50  0001 C CNN
F 3 "" H 4750 3900 50  0001 C CNN
	1    4750 3900
	1    0    0    -1  
$EndComp
$Comp
L Device:C C17
U 1 1 609425E7
P 4500 3850
F 0 "C17" V 4450 3950 50  0000 C CNN
F 1 "0.1uF" V 4450 3700 50  0000 C CNN
F 2 "Capacitor_SMD:C_0805_2012Metric" H 4538 3700 50  0001 C CNN
F 3 "~" H 4500 3850 50  0001 C CNN
	1    4500 3850
	0    1    1    0   
$EndComp
Wire Wire Line
	7650 4150 7650 4200
Wire Wire Line
	7550 4150 7650 4150
$Comp
L power:GND #PWR045
U 1 1 60972D5A
P 7650 4200
F 0 "#PWR045" H 7650 3950 50  0001 C CNN
F 1 "GND" H 7655 4027 50  0000 C CNN
F 2 "" H 7650 4200 50  0001 C CNN
F 3 "" H 7650 4200 50  0001 C CNN
	1    7650 4200
	1    0    0    -1  
$EndComp
$Comp
L Device:C C18
U 1 1 60972D60
P 7400 4150
F 0 "C18" V 7350 4250 50  0000 C CNN
F 1 "0.1uF" V 7350 4000 50  0000 C CNN
F 2 "Capacitor_SMD:C_0805_2012Metric" H 7438 4000 50  0001 C CNN
F 3 "~" H 7400 4150 50  0001 C CNN
	1    7400 4150
	0    1    1    0   
$EndComp
Wire Wire Line
	7550 2800 7550 2850
Wire Wire Line
	7450 2800 7550 2800
$Comp
L power:GND #PWR039
U 1 1 60973BD8
P 7550 2850
F 0 "#PWR039" H 7550 2600 50  0001 C CNN
F 1 "GND" H 7555 2677 50  0000 C CNN
F 2 "" H 7550 2850 50  0001 C CNN
F 3 "" H 7550 2850 50  0001 C CNN
	1    7550 2850
	1    0    0    -1  
$EndComp
$Comp
L Device:C C12
U 1 1 60973BDE
P 7300 2800
F 0 "C12" V 7250 2900 50  0000 C CNN
F 1 "0.1uF" V 7250 2650 50  0000 C CNN
F 2 "Capacitor_SMD:C_0805_2012Metric" H 7338 2650 50  0001 C CNN
F 3 "~" H 7300 2800 50  0001 C CNN
	1    7300 2800
	0    1    1    0   
$EndComp
Wire Wire Line
	7100 4400 7100 4150
Wire Wire Line
	7250 4150 7100 4150
Connection ~ 7100 4150
Wire Wire Line
	7100 4150 7100 4000
Wire Wire Line
	7150 2800 7000 2800
Connection ~ 7000 2800
Wire Wire Line
	7000 2800 7000 2600
Wire Wire Line
	5900 3400 6100 3400
$Comp
L Connector:Conn_Coaxial J13
U 1 1 6096FA6F
P 6100 4300
F 0 "J13" V 5982 4400 50  0000 L CNN
F 1 "Conn_Coaxial" V 6073 4400 50  0000 L CNN
F 2 "noise:lemo_epb00250ntn" H 6100 4300 50  0001 C CNN
F 3 " ~" H 6100 4300 50  0001 C CNN
	1    6100 4300
	0    1    1    0   
$EndComp
Wire Wire Line
	6100 4100 6100 3400
Connection ~ 6100 3400
Wire Wire Line
	6100 3400 6600 3400
$Comp
L power:GND #PWR046
U 1 1 60974A16
P 5650 4350
F 0 "#PWR046" H 5650 4100 50  0001 C CNN
F 1 "GND" H 5655 4177 50  0000 C CNN
F 2 "" H 5650 4350 50  0001 C CNN
F 3 "" H 5650 4350 50  0001 C CNN
	1    5650 4350
	1    0    0    -1  
$EndComp
Wire Wire Line
	5900 4300 5650 4300
Wire Wire Line
	5650 4300 5650 4350
NoConn ~ 4400 3650
Wire Wire Line
	2500 3500 2650 3500
Text HLabel 2500 3500 0    50   Input ~ 0
VIN
Wire Wire Line
	3550 3500 3840 3500
Wire Wire Line
	2950 3500 3250 3500
$Comp
L Device:C C14
U 1 1 609474DF
P 2800 3500
F 0 "C14" V 2750 3600 50  0000 C CNN
F 1 "10uF" V 2750 3350 50  0000 C CNN
F 2 "Capacitor_SMD:C_0805_2012Metric" H 2838 3350 50  0001 C CNN
F 3 "~" H 2800 3500 50  0001 C CNN
	1    2800 3500
	0    1    1    0   
$EndComp
$Comp
L Device:R R5
U 1 1 60946C5D
P 3400 3500
F 0 "R5" V 3300 3500 50  0000 C CNN
F 1 "1k" V 3400 3500 50  0000 C CNN
F 2 "Resistor_SMD:R_0805_2012Metric" V 3330 3500 50  0001 C CNN
F 3 "~" H 3400 3500 50  0001 C CNN
	1    3400 3500
	0    1    1    0   
$EndComp
Wire Wire Line
	6500 3500 6500 3650
Wire Wire Line
	6600 4150 7100 4150
Wire Wire Line
	6600 3600 6600 4150
Wire Wire Line
	5040 4430 5040 3400
Wire Wire Line
	4600 3400 5040 3400
Connection ~ 5040 3400
Wire Wire Line
	5040 3400 5600 3400
Wire Wire Line
	3840 4430 3840 3500
Connection ~ 3840 3500
Wire Wire Line
	3840 3500 4000 3500
$Comp
L power:GND #PWR0119
U 1 1 60CBA6A4
P 3200 3120
F 0 "#PWR0119" H 3200 2870 50  0001 C CNN
F 1 "GND" H 3205 2947 50  0000 C CNN
F 2 "" H 3200 3120 50  0001 C CNN
F 3 "" H 3200 3120 50  0001 C CNN
	1    3200 3120
	1    0    0    -1  
$EndComp
Wire Wire Line
	3200 3120 3200 3010
Wire Wire Line
	3200 3010 3840 3010
Wire Wire Line
	3840 3010 3840 3300
Wire Wire Line
	3840 3300 4000 3300
$EndSCHEMATC
