1, 28.6
2, 56.0
3, 85.8
4, 114.0
5, 142.5
6, 168.3
7, 196.0
8, 224.3
9, 253.1
10, 281.4
11, 309.3
12, 337.4
13, 367.0
14, 396.3
15, 421.3
16, 449.5
17, 482.5
18, 510.1
19, 538.5
20, 564.8
21, 594.1
22, 620.6
23, 648.4
24, 677.4
25, 710.0
30, 850.6
35, 999.0
40, 1100.7
45, 1142.5
50, 1173.3
