M48
; DRILL file {KiCad (5.1.9-0-10_14)} date Friday, June 11, 2021 at 05:12:22 PM
; FORMAT={-:-/ absolute / inch / decimal}
; #@! TF.CreationDate,2021-06-11T17:12:22-07:00
; #@! TF.GenerationSoftware,Kicad,Pcbnew,(5.1.9-0-10_14)
; #@! TF.FileFunction,Plated,1,2,PTH
FMAT,2
INCH
T1C0.0157
T2C0.0354
T3C0.0394
%
G90
G05
T1
X4.53Y-6.4
X4.54Y-3.435
X4.54Y-5.73
X4.5972Y-5.8828
X4.6Y-6.4
X4.61Y-6.29
X4.6116Y-4.0016
X4.615Y-3.44
X4.62Y-6.51
X4.63Y-3.36
X4.64Y-4.15
X4.64Y-5.73
X4.6428Y-5.3372
X4.644Y-3.976
X4.644Y-4.104
X4.6528Y-4.0272
X4.69Y-5.46
X4.7016Y-5.9084
X4.7016Y-6.0584
X4.709Y-5.831
X4.71Y-5.75
X4.714Y-4.451
X4.74Y-4.57
X4.77Y-5.62
X4.7846Y-4.5296
X4.81Y-5.215
X4.81Y-5.62
X4.8146Y-5.8054
X4.86Y-4.49
X4.86Y-4.64
X4.86Y-4.95
X4.86Y-6.095
X4.906Y-4.639
X4.906Y-4.954
X4.906Y-5.679
X4.9352Y-3.9248
X4.95Y-5.45
X4.95Y-5.62
X4.955Y-3.84
X4.955Y-5.215
X4.96Y-4.955
X4.9672Y-5.3372
X4.99Y-4.22
X4.99Y-5.62
X5.03Y-5.62
X5.05Y-5.36
X5.05Y-5.75
X5.05Y-5.92
X5.0572Y-5.8828
X5.065Y-5.135
X5.066Y-5.806
X5.09Y-3.46
X5.09Y-4.025
X5.09Y-4.16
X5.102Y-4.383
X5.102Y-4.898
X5.135Y-5.62
X5.14Y-5.5
X5.15Y-3.34
X5.16Y-2.965
X5.185Y-5.62
X5.22Y-6.07
X5.23Y-2.72
X5.23Y-2.84
X5.235Y-3.015
X5.24Y-3.62
X5.24Y-4.47
X5.25Y-5.52
X5.26Y-3.12
X5.265Y-2.95
X5.2756Y-5.8044
X5.29Y-5.52
X5.29Y-5.72
X5.31Y-5.06
X5.34Y-3.31
X5.34Y-3.36
X5.34Y-3.73
X5.34Y-4.0
X5.34Y-4.21
X5.34Y-4.62
X5.34Y-4.8
X5.34Y-5.36
X5.34Y-5.82
X5.37Y-4.17
X5.37Y-4.89
X5.37Y-4.98
X5.38Y-5.06
X5.39Y-3.66
X5.39Y-4.53
X5.39Y-5.62
X5.39Y-6.12
X5.395Y-5.185
X5.435Y-5.52
X5.44Y-5.21
X5.44Y-5.31
X5.4476Y-3.32
X5.45Y-3.37
X5.45Y-3.63
X5.45Y-4.5
X5.45Y-6.07
X5.47Y-5.52
X5.475Y-3.995
X5.48Y-4.85
X5.51Y-3.37
X5.52Y-4.03
X5.56Y-3.32
X5.56Y-4.15
X5.58Y-4.09
X5.64Y-4.23
X5.64Y-4.53
X5.68Y-4.19
X5.68Y-4.5
X5.72Y-5.56
X5.8Y-5.53
T2
X4.52Y-4.84
X4.52Y-5.04
X4.62Y-4.94
X4.72Y-4.84
X4.72Y-5.04
T3
X2.7Y-2.07
X2.7Y-2.17
X2.8Y-2.07
X2.8Y-2.17
X5.8Y-2.87
X5.8Y-2.97
X5.8Y-3.27
X5.8Y-3.37
X5.8Y-3.67
X5.8Y-3.77
X5.8Y-4.07
X5.8Y-4.17
X5.8Y-4.47
X5.8Y-4.57
X5.8Y-4.87
X5.8Y-4.97
X5.8Y-5.27
X5.8Y-5.37
X5.8Y-5.67
X5.8Y-5.77
X5.8Y-6.07
X5.8Y-6.17
X5.8Y-6.47
X5.8Y-6.57
X5.9Y-2.87
X5.9Y-2.97
X5.9Y-3.27
X5.9Y-3.37
X5.9Y-3.67
X5.9Y-3.77
X5.9Y-4.07
X5.9Y-4.17
X5.9Y-4.47
X5.9Y-4.57
X5.9Y-4.87
X5.9Y-4.97
X5.9Y-5.27
X5.9Y-5.37
X5.9Y-5.67
X5.9Y-5.77
X5.9Y-6.07
X5.9Y-6.17
X5.9Y-6.47
X5.9Y-6.57
T0
M30
