%!PS-Adobe-3.0
%%Creator: PCBNEW
%%CreationDate: Fri Jun 11 17:12:22 2021
%%Title: /Users/zhicai/gDrive/silicon/mac_git/dc_noise_measurement/gerbers/dc_noise_measurement-PTH-drl_map.ps
%%Pages: 1
%%PageOrder: Ascend
%%BoundingBox: 0 0 596 842
%%DocumentMedia: A4 595 842 0 () ()
%%Orientation: Landscape
%%EndComments
%%BeginProlog
/line { newpath moveto lineto stroke } bind def
/cir0 { newpath 0 360 arc stroke } bind def
/cir1 { newpath 0 360 arc gsave fill grestore stroke } bind def
/cir2 { newpath 0 360 arc gsave fill grestore stroke } bind def
/arc0 { newpath arc stroke } bind def
/arc1 { newpath 4 index 4 index moveto arc closepath gsave fill
    grestore stroke } bind def
/arc2 { newpath 4 index 4 index moveto arc closepath gsave fill
    grestore stroke } bind def
/poly0 { stroke } bind def
/poly1 { closepath gsave fill grestore stroke } bind def
/poly2 { closepath gsave fill grestore stroke } bind def
/rect0 { rectstroke } bind def
/rect1 { rectfill } bind def
/rect2 { rectfill } bind def
/linemode0 { 0 setlinecap 0 setlinejoin 0 setlinewidth } bind def
/linemode1 { 1 setlinecap 1 setlinejoin } bind def
/dashedline { [200] 100 setdash } bind def
/solidline { [] 0 setdash } bind def
/phantomshow { moveto
    /KicadFont findfont 0.000001 scalefont setfont
    show } bind def
/textshow { gsave
    findfont exch scalefont setfont concat 1 scale 0 0 moveto show
    } bind def
/reencodefont {
  findfont dup length dict begin
  { 1 index /FID ne
    { def }
    { pop pop } ifelse
  } forall
  /Encoding ISOLatin1Encoding def
  currentdict
  end } bind def
/KicadFont /Helvetica reencodefont definefont pop
/KicadFont-Bold /Helvetica-Bold reencodefont definefont pop
/KicadFont-Oblique /Helvetica-Oblique reencodefont definefont pop
/KicadFont-BoldOblique /Helvetica-BoldOblique reencodefont definefont pop
%%EndProlog
%%Page: 1 1
%%BeginPageSetup
gsave
0.0072 0.0072 scale
linemode1
82680 0 translate 90 rotate
43.0611 setlinewidth
%%EndPageSetup
0 0 0 setrgbcolor
50.8595 setlinewidth
newpath
43092.2 75100.4 moveto
59455.4 75100.4 lineto
stroke
0 0 0 setrgbcolor
newpath
43092.2 78717.6 moveto
43092.2 75100.4 lineto
stroke
0 0 0 setrgbcolor
newpath
43092.2 78717.6 moveto
73837.8 78717.6 lineto
stroke
0 0 0 setrgbcolor
newpath
59455.4 37034.4 moveto
59455.4 75100.4 lineto
stroke
0 0 0 setrgbcolor
newpath
73837.8 37034.4 moveto
59455.4 37034.4 lineto
stroke
0 0 0 setrgbcolor
newpath
73837.8 78717.6 moveto
73837.8 37034.4 lineto
stroke
78.7401 setlinewidth
newpath
60162.7 40116.5 moveto
60298.3 39980.9 lineto
stroke
newpath
60298.3 40116.5 moveto
60162.7 39980.9 lineto
stroke
newpath
60248.8 65651.7 moveto
60384.4 65516.1 lineto
stroke
newpath
60384.4 65651.7 moveto
60248.8 65516.1 lineto
stroke
newpath
60248.8 45886.7 moveto
60384.4 45751.1 lineto
stroke
newpath
60384.4 45886.7 moveto
60248.8 45751.1 lineto
stroke
newpath
60741.5 44570.8 moveto
60877.1 44435.2 lineto
stroke
newpath
60877.1 44570.8 moveto
60741.5 44435.2 lineto
stroke
newpath
60765.5 40116.5 moveto
60901.2 39980.9 lineto
stroke
newpath
60901.2 40116.5 moveto
60765.5 39980.9 lineto
stroke
newpath
60851.7 41063.9 moveto
60987.3 40928.2 lineto
stroke
newpath
60987.3 41063.9 moveto
60851.7 40928.2 lineto
stroke
newpath
60865.6 60771.9 moveto
61001.2 60636.3 lineto
stroke
newpath
61001.2 60771.9 moveto
60865.6 60636.3 lineto
stroke
newpath
60894.7 65608.7 moveto
61030.4 65473.1 lineto
stroke
newpath
61030.4 65608.7 moveto
60894.7 65473.1 lineto
stroke
newpath
60937.8 39169.2 moveto
61073.4 39033.6 lineto
stroke
newpath
61073.4 39169.2 moveto
60937.8 39033.6 lineto
stroke
newpath
61023.9 66297.7 moveto
61159.5 66162 lineto
stroke
newpath
61159.5 66297.7 moveto
61023.9 66162 lineto
stroke
newpath
61110 59494 moveto
61245.7 59358.4 lineto
stroke
newpath
61245.7 59494 moveto
61110 59358.4 lineto
stroke
newpath
61110 45886.7 moveto
61245.7 45751.1 lineto
stroke
newpath
61245.7 45886.7 moveto
61110 45751.1 lineto
stroke
newpath
61134.1 49269.5 moveto
61269.7 49133.9 lineto
stroke
newpath
61269.7 49269.5 moveto
61134.1 49133.9 lineto
stroke
newpath
61144.3 60992.3 moveto
61279.9 60856.7 lineto
stroke
newpath
61279.9 60992.3 moveto
61144.3 60856.7 lineto
stroke
newpath
61144.3 59890.4 moveto
61279.9 59754.8 lineto
stroke
newpath
61279.9 59890.4 moveto
61144.3 59754.8 lineto
stroke
newpath
61220.2 60551.6 moveto
61355.9 60415.9 lineto
stroke
newpath
61355.9 60551.6 moveto
61220.2 60415.9 lineto
stroke
newpath
61540.6 48212 moveto
61676.3 48076.4 lineto
stroke
newpath
61676.3 48212 moveto
61540.6 48076.4 lineto
stroke
newpath
61640.7 44350.4 moveto
61776.3 44214.8 lineto
stroke
newpath
61776.3 44350.4 moveto
61640.7 44214.8 lineto
stroke
newpath
61640.7 43058.6 moveto
61776.3 42923 lineto
stroke
newpath
61776.3 43058.6 moveto
61640.7 42923 lineto
stroke
newpath
61704.1 45016.7 moveto
61839.7 44881 lineto
stroke
newpath
61839.7 45016.7 moveto
61704.1 44881 lineto
stroke
newpath
61712.9 45714.5 moveto
61848.5 45578.8 lineto
stroke
newpath
61848.5 45714.5 moveto
61712.9 45578.8 lineto
stroke
newpath
61747.3 56901.7 moveto
61883 56766.1 lineto
stroke
newpath
61883 56901.7 moveto
61747.3 56766.1 lineto
stroke
newpath
61971.3 55876.9 moveto
62106.9 55741.3 lineto
stroke
newpath
62106.9 55876.9 moveto
61971.3 55741.3 lineto
stroke
newpath
62229.6 46834.1 moveto
62365.2 46698.4 lineto
stroke
newpath
62365.2 46834.1 moveto
62229.6 46698.4 lineto
stroke
newpath
62355.4 56224.8 moveto
62491 56089.2 lineto
stroke
newpath
62491 56224.8 moveto
62355.4 56089.2 lineto
stroke
newpath
62574.1 50322 moveto
62709.7 50186.4 lineto
stroke
newpath
62709.7 50322 moveto
62574.1 50186.4 lineto
stroke
newpath
62574.1 46834.1 moveto
62709.7 46698.4 lineto
stroke
newpath
62709.7 46834.1 moveto
62574.1 46698.4 lineto
stroke
newpath
62613.4 45237.1 moveto
62749.1 45101.4 lineto
stroke
newpath
62749.1 45237.1 moveto
62613.4 45101.4 lineto
stroke
newpath
63004.7 56565.9 moveto
63140.3 56430.2 lineto
stroke
newpath
63140.3 56565.9 moveto
63004.7 56430.2 lineto
stroke
newpath
63004.7 55274 moveto
63140.3 55138.4 lineto
stroke
newpath
63140.3 55274 moveto
63004.7 55138.4 lineto
stroke
newpath
63004.7 52604.2 moveto
63140.3 52468.6 lineto
stroke
newpath
63140.3 52604.2 moveto
63004.7 52468.6 lineto
stroke
newpath
63004.7 42743.3 moveto
63140.3 42607.6 lineto
stroke
newpath
63140.3 42743.3 moveto
63004.7 42607.6 lineto
stroke
newpath
63400.9 55282.6 moveto
63536.5 55147 lineto
stroke
newpath
63536.5 55282.6 moveto
63400.9 55147 lineto
stroke
newpath
63400.9 52569.8 moveto
63536.5 52434.2 lineto
stroke
newpath
63536.5 52569.8 moveto
63400.9 52434.2 lineto
stroke
newpath
63400.9 46325.9 moveto
63536.5 46190.3 lineto
stroke
newpath
63536.5 46325.9 moveto
63400.9 46190.3 lineto
stroke
newpath
63652 61433.1 moveto
63787.6 61297.5 lineto
stroke
newpath
63787.6 61433.1 moveto
63652 61297.5 lineto
stroke
newpath
63779.8 48298.1 moveto
63915.4 48162.5 lineto
stroke
newpath
63915.4 48298.1 moveto
63779.8 48162.5 lineto
stroke
newpath
63779.8 46834.1 moveto
63915.4 46698.4 lineto
stroke
newpath
63915.4 46834.1 moveto
63779.8 46698.4 lineto
stroke
newpath
63822.9 62163.8 moveto
63958.5 62028.2 lineto
stroke
newpath
63958.5 62163.8 moveto
63822.9 62028.2 lineto
stroke
newpath
63822.9 50322 moveto
63958.5 50186.4 lineto
stroke
newpath
63958.5 50322 moveto
63822.9 50186.4 lineto
stroke
newpath
63865.9 52561.2 moveto
64001.6 52425.6 lineto
stroke
newpath
64001.6 52561.2 moveto
63865.9 52425.6 lineto
stroke
newpath
63928 49269.5 moveto
64063.6 49133.9 lineto
stroke
newpath
64063.6 49269.5 moveto
63928 49133.9 lineto
stroke
newpath
64124.3 58891.2 moveto
64259.9 58755.5 lineto
stroke
newpath
64259.9 58891.2 moveto
64124.3 58755.5 lineto
stroke
newpath
64124.3 46834.1 moveto
64259.9 46698.4 lineto
stroke
newpath
64259.9 46834.1 moveto
64124.3 46698.4 lineto
stroke
newpath
64468.8 46834.1 moveto
64604.4 46698.4 lineto
stroke
newpath
64604.4 46834.1 moveto
64468.8 46698.4 lineto
stroke
newpath
64641 49073.2 moveto
64776.7 48937.6 lineto
stroke
newpath
64776.7 49073.2 moveto
64641 48937.6 lineto
stroke
newpath
64641 45714.5 moveto
64776.7 45578.8 lineto
stroke
newpath
64776.7 45714.5 moveto
64641 45578.8 lineto
stroke
newpath
64641 44250.4 moveto
64776.7 44114.8 lineto
stroke
newpath
64776.7 44250.4 moveto
64641 44114.8 lineto
stroke
newpath
64703.1 44570.8 moveto
64838.7 44435.2 lineto
stroke
newpath
64838.7 44570.8 moveto
64703.1 44435.2 lineto
stroke
newpath
64770.2 51011 moveto
64905.9 50875.4 lineto
stroke
newpath
64905.9 51011 moveto
64770.2 50875.4 lineto
stroke
newpath
64779 45232 moveto
64914.7 45096.4 lineto
stroke
newpath
64914.7 45232 moveto
64779 45096.4 lineto
stroke
newpath
64985.5 65436.4 moveto
65121.2 65300.8 lineto
stroke
newpath
65121.2 65436.4 moveto
64985.5 65300.8 lineto
stroke
newpath
64985.5 60570.5 moveto
65121.2 60434.9 lineto
stroke
newpath
65121.2 60570.5 moveto
64985.5 60434.9 lineto
stroke
newpath
64985.5 59407.9 moveto
65121.2 59272.3 lineto
stroke
newpath
65121.2 59407.9 moveto
64985.5 59272.3 lineto
stroke
newpath
65088.9 57487.4 moveto
65224.5 57351.7 lineto
stroke
newpath
65224.5 57487.4 moveto
65088.9 57351.7 lineto
stroke
newpath
65088.9 53052.1 moveto
65224.5 52916.4 lineto
stroke
newpath
65224.5 53052.1 moveto
65088.9 52916.4 lineto
stroke
newpath
65373.1 46834.1 moveto
65508.7 46698.4 lineto
stroke
newpath
65508.7 46834.1 moveto
65373.1 46698.4 lineto
stroke
newpath
65416.1 47867.5 moveto
65551.8 47731.9 lineto
stroke
newpath
65551.8 47867.5 moveto
65416.1 47731.9 lineto
stroke
newpath
65502.3 66469.9 moveto
65637.9 66334.3 lineto
stroke
newpath
65637.9 66469.9 moveto
65502.3 66334.3 lineto
stroke
newpath
65588.4 69699.5 moveto
65724 69563.9 lineto
stroke
newpath
65724 69699.5 moveto
65588.4 69563.9 lineto
stroke
newpath
65803.7 46834.1 moveto
65939.3 46698.4 lineto
stroke
newpath
65939.3 46834.1 moveto
65803.7 46698.4 lineto
stroke
newpath
66105.1 42958.6 moveto
66240.7 42822.9 lineto
stroke
newpath
66240.7 42958.6 moveto
66105.1 42822.9 lineto
stroke
newpath
66191.2 71809.5 moveto
66326.9 71673.9 lineto
stroke
newpath
66326.9 71809.5 moveto
66191.2 71673.9 lineto
stroke
newpath
66191.2 70776 moveto
66326.9 70640.4 lineto
stroke
newpath
66326.9 70776 moveto
66191.2 70640.4 lineto
stroke
newpath
66234.3 69268.9 moveto
66369.9 69133.3 lineto
stroke
newpath
66369.9 69268.9 moveto
66234.3 69133.3 lineto
stroke
newpath
66277.4 64058.5 moveto
66413 63922.9 lineto
stroke
newpath
66413 64058.5 moveto
66277.4 63922.9 lineto
stroke
newpath
66277.4 56738.1 moveto
66413 56602.5 lineto
stroke
newpath
66413 56738.1 moveto
66277.4 56602.5 lineto
stroke
newpath
66363.5 47695.3 moveto
66499.1 47559.7 lineto
stroke
newpath
66499.1 47695.3 moveto
66363.5 47559.7 lineto
stroke
newpath
66449.6 68364.6 moveto
66585.2 68229 lineto
stroke
newpath
66585.2 68364.6 moveto
66449.6 68229 lineto
stroke
newpath
66492.7 69828.7 moveto
66628.3 69693 lineto
stroke
newpath
66628.3 69828.7 moveto
66492.7 69693 lineto
stroke
newpath
66584.2 45246.2 moveto
66719.8 45110.6 lineto
stroke
newpath
66719.8 45246.2 moveto
66584.2 45110.6 lineto
stroke
newpath
66708 47695.3 moveto
66843.6 47559.7 lineto
stroke
newpath
66843.6 47695.3 moveto
66708 47559.7 lineto
stroke
newpath
66708 45972.8 moveto
66843.6 45837.2 lineto
stroke
newpath
66843.6 45972.8 moveto
66708 45837.2 lineto
stroke
newpath
66880.2 51656.9 moveto
67015.8 51521.3 lineto
stroke
newpath
67015.8 51656.9 moveto
66880.2 51521.3 lineto
stroke
newpath
67138.6 66728.3 moveto
67274.2 66592.6 lineto
stroke
newpath
67274.2 66728.3 moveto
67138.6 66592.6 lineto
stroke
newpath
67138.6 66297.7 moveto
67274.2 66162 lineto
stroke
newpath
67274.2 66297.7 moveto
67138.6 66162 lineto
stroke
newpath
67138.6 63111.1 moveto
67274.2 62975.5 lineto
stroke
newpath
67274.2 63111.1 moveto
67138.6 62975.5 lineto
stroke
newpath
67138.6 60785.8 moveto
67274.2 60650.2 lineto
stroke
newpath
67274.2 60785.8 moveto
67138.6 60650.2 lineto
stroke
newpath
67138.6 58977.3 moveto
67274.2 58841.7 lineto
stroke
newpath
67274.2 58977.3 moveto
67138.6 58841.7 lineto
stroke
newpath
67138.6 55446.3 moveto
67274.2 55310.6 lineto
stroke
newpath
67274.2 55446.3 moveto
67138.6 55310.6 lineto
stroke
newpath
67138.6 53896.1 moveto
67274.2 53760.4 lineto
stroke
newpath
67274.2 53896.1 moveto
67138.6 53760.4 lineto
stroke
newpath
67138.6 49073.2 moveto
67274.2 48937.6 lineto
stroke
newpath
67274.2 49073.2 moveto
67138.6 48937.6 lineto
stroke
newpath
67138.6 45111.6 moveto
67274.2 44976 lineto
stroke
newpath
67274.2 45111.6 moveto
67138.6 44976 lineto
stroke
newpath
67397 59321.8 moveto
67532.6 59186.1 lineto
stroke
newpath
67532.6 59321.8 moveto
67397 59186.1 lineto
stroke
newpath
67397 53121 moveto
67532.6 52985.3 lineto
stroke
newpath
67532.6 53121 moveto
67397 52985.3 lineto
stroke
newpath
67397 52345.9 moveto
67532.6 52210.2 lineto
stroke
newpath
67532.6 52345.9 moveto
67397 52210.2 lineto
stroke
newpath
67483.1 51656.9 moveto
67618.7 51521.3 lineto
stroke
newpath
67618.7 51656.9 moveto
67483.1 51521.3 lineto
stroke
newpath
67569.2 63714 moveto
67704.8 63578.4 lineto
stroke
newpath
67704.8 63714 moveto
67569.2 63578.4 lineto
stroke
newpath
67569.2 56221.4 moveto
67704.8 56085.7 lineto
stroke
newpath
67704.8 56221.4 moveto
67569.2 56085.7 lineto
stroke
newpath
67569.2 46834.1 moveto
67704.8 46698.4 lineto
stroke
newpath
67704.8 46834.1 moveto
67569.2 46698.4 lineto
stroke
newpath
67569.2 42527.9 moveto
67704.8 42392.3 lineto
stroke
newpath
67704.8 42527.9 moveto
67569.2 42392.3 lineto
stroke
newpath
67612.3 50580.4 moveto
67747.9 50444.7 lineto
stroke
newpath
67747.9 50580.4 moveto
67612.3 50444.7 lineto
stroke
newpath
67956.7 47695.3 moveto
68092.4 47559.7 lineto
stroke
newpath
68092.4 47695.3 moveto
67956.7 47559.7 lineto
stroke
newpath
67999.8 50365.1 moveto
68135.4 50229.4 lineto
stroke
newpath
68135.4 50365.1 moveto
67999.8 50229.4 lineto
stroke
newpath
67999.8 49503.8 moveto
68135.4 49368.2 lineto
stroke
newpath
68135.4 49503.8 moveto
67999.8 49368.2 lineto
stroke
newpath
68065.6 66642.2 moveto
68201.2 66506.5 lineto
stroke
newpath
68201.2 66642.2 moveto
68065.6 66506.5 lineto
stroke
newpath
68085.9 66211.5 moveto
68221.6 66075.9 lineto
stroke
newpath
68221.6 66211.5 moveto
68085.9 66075.9 lineto
stroke
newpath
68085.9 63972.4 moveto
68221.6 63836.7 lineto
stroke
newpath
68221.6 63972.4 moveto
68085.9 63836.7 lineto
stroke
newpath
68085.9 56479.7 moveto
68221.6 56344.1 lineto
stroke
newpath
68221.6 56479.7 moveto
68085.9 56344.1 lineto
stroke
newpath
68085.9 42958.6 moveto
68221.6 42822.9 lineto
stroke
newpath
68221.6 42958.6 moveto
68085.9 42822.9 lineto
stroke
newpath
68258.2 47695.3 moveto
68393.8 47559.7 lineto
stroke
newpath
68393.8 47695.3 moveto
68258.2 47559.7 lineto
stroke
newpath
68301.2 60828.9 moveto
68436.9 60693.3 lineto
stroke
newpath
68436.9 60828.9 moveto
68301.2 60693.3 lineto
stroke
newpath
68344.3 53465.5 moveto
68479.9 53329.8 lineto
stroke
newpath
68479.9 53465.5 moveto
68344.3 53329.8 lineto
stroke
newpath
68602.7 66211.5 moveto
68738.3 66075.9 lineto
stroke
newpath
68738.3 66211.5 moveto
68602.7 66075.9 lineto
stroke
newpath
68688.8 60527.5 moveto
68824.4 60391.9 lineto
stroke
newpath
68824.4 60527.5 moveto
68688.8 60391.9 lineto
stroke
newpath
69033.3 66642.2 moveto
69168.9 66506.5 lineto
stroke
newpath
69168.9 66642.2 moveto
69033.3 66506.5 lineto
stroke
newpath
69033.3 59494 moveto
69168.9 59358.4 lineto
stroke
newpath
69168.9 59494 moveto
69033.3 59358.4 lineto
stroke
newpath
69205.5 60010.7 moveto
69341.1 59875.1 lineto
stroke
newpath
69341.1 60010.7 moveto
69205.5 59875.1 lineto
stroke
newpath
69722.3 58805 moveto
69857.9 58669.4 lineto
stroke
newpath
69857.9 58805 moveto
69722.3 58669.4 lineto
stroke
newpath
69722.3 56221.4 moveto
69857.9 56085.7 lineto
stroke
newpath
69857.9 56221.4 moveto
69722.3 56085.7 lineto
stroke
newpath
70066.7 59149.5 moveto
70202.4 59013.9 lineto
stroke
newpath
70202.4 59149.5 moveto
70066.7 59013.9 lineto
stroke
newpath
70066.7 56479.7 moveto
70202.4 56344.1 lineto
stroke
newpath
70202.4 56479.7 moveto
70066.7 56344.1 lineto
stroke
newpath
70411.2 47350.8 moveto
70546.9 47215.2 lineto
stroke
newpath
70546.9 47350.8 moveto
70411.2 47215.2 lineto
stroke
newpath
71100.2 47609.2 moveto
71235.8 47473.5 lineto
stroke
newpath
71235.8 47609.2 moveto
71100.2 47473.5 lineto
stroke
60144.4 53483.8 152.436 cir0
60144.4 51761.3 152.436 cir0
61005.6 52622.5 152.436 cir0
61866.8 53483.8 152.436 cir0
61866.8 51761.3 152.436 cir0
newpath
44470.1 77509.1 moveto
44470.1 77170.1 lineto
stroke
newpath
44300.6 77339.6 moveto
44639.7 77339.6 lineto
stroke
newpath
44470.1 76647.9 moveto
44470.1 76308.9 lineto
stroke
newpath
44300.6 76478.4 moveto
44639.7 76478.4 lineto
stroke
newpath
45331.4 77509.1 moveto
45331.4 77170.1 lineto
stroke
newpath
45161.8 77339.6 moveto
45500.9 77339.6 lineto
stroke
newpath
45331.4 76647.9 moveto
45331.4 76308.9 lineto
stroke
newpath
45161.8 76478.4 moveto
45500.9 76478.4 lineto
stroke
newpath
71168 70619.4 moveto
71168 70280.3 lineto
stroke
newpath
70998.5 70449.8 moveto
71337.6 70449.8 lineto
stroke
newpath
71168 69758.1 moveto
71168 69419.1 lineto
stroke
newpath
70998.5 69588.6 moveto
71337.6 69588.6 lineto
stroke
newpath
71168 67174.5 moveto
71168 66835.4 lineto
stroke
newpath
70998.5 67004.9 moveto
71337.6 67004.9 lineto
stroke
newpath
71168 66313.3 moveto
71168 65974.2 lineto
stroke
newpath
70998.5 66143.7 moveto
71337.6 66143.7 lineto
stroke
newpath
71168 63729.6 moveto
71168 63390.5 lineto
stroke
newpath
70998.5 63560.1 moveto
71337.6 63560.1 lineto
stroke
newpath
71168 62868.4 moveto
71168 62529.3 lineto
stroke
newpath
70998.5 62698.8 moveto
71337.6 62698.8 lineto
stroke
newpath
71168 60284.7 moveto
71168 59945.6 lineto
stroke
newpath
70998.5 60115.2 moveto
71337.6 60115.2 lineto
stroke
newpath
71168 59423.5 moveto
71168 59084.4 lineto
stroke
newpath
70998.5 59254 moveto
71337.6 59254 lineto
stroke
newpath
71168 56839.8 moveto
71168 56500.8 lineto
stroke
newpath
70998.5 56670.3 moveto
71337.6 56670.3 lineto
stroke
newpath
71168 55978.6 moveto
71168 55639.5 lineto
stroke
newpath
70998.5 55809.1 moveto
71337.6 55809.1 lineto
stroke
newpath
71168 53394.9 moveto
71168 53055.9 lineto
stroke
newpath
70998.5 53225.4 moveto
71337.6 53225.4 lineto
stroke
newpath
71168 52533.7 moveto
71168 52194.7 lineto
stroke
newpath
70998.5 52364.2 moveto
71337.6 52364.2 lineto
stroke
newpath
71168 49950 moveto
71168 49611 lineto
stroke
newpath
70998.5 49780.5 moveto
71337.6 49780.5 lineto
stroke
newpath
71168 49088.8 moveto
71168 48749.8 lineto
stroke
newpath
70998.5 48919.3 moveto
71337.6 48919.3 lineto
stroke
newpath
71168 46505.2 moveto
71168 46166.1 lineto
stroke
newpath
70998.5 46335.6 moveto
71337.6 46335.6 lineto
stroke
newpath
71168 45643.9 moveto
71168 45304.9 lineto
stroke
newpath
70998.5 45474.4 moveto
71337.6 45474.4 lineto
stroke
newpath
71168 43060.3 moveto
71168 42721.2 lineto
stroke
newpath
70998.5 42890.7 moveto
71337.6 42890.7 lineto
stroke
newpath
71168 42199.1 moveto
71168 41860 lineto
stroke
newpath
70998.5 42029.5 moveto
71337.6 42029.5 lineto
stroke
newpath
71168 39615.4 moveto
71168 39276.3 lineto
stroke
newpath
70998.5 39445.9 moveto
71337.6 39445.9 lineto
stroke
newpath
71168 38754.2 moveto
71168 38415.1 lineto
stroke
newpath
70998.5 38584.6 moveto
71337.6 38584.6 lineto
stroke
newpath
72029.2 70619.4 moveto
72029.2 70280.3 lineto
stroke
newpath
71859.7 70449.8 moveto
72198.8 70449.8 lineto
stroke
newpath
72029.2 69758.1 moveto
72029.2 69419.1 lineto
stroke
newpath
71859.7 69588.6 moveto
72198.8 69588.6 lineto
stroke
newpath
72029.2 67174.5 moveto
72029.2 66835.4 lineto
stroke
newpath
71859.7 67004.9 moveto
72198.8 67004.9 lineto
stroke
newpath
72029.2 66313.3 moveto
72029.2 65974.2 lineto
stroke
newpath
71859.7 66143.7 moveto
72198.8 66143.7 lineto
stroke
newpath
72029.2 63729.6 moveto
72029.2 63390.5 lineto
stroke
newpath
71859.7 63560.1 moveto
72198.8 63560.1 lineto
stroke
newpath
72029.2 62868.4 moveto
72029.2 62529.3 lineto
stroke
newpath
71859.7 62698.8 moveto
72198.8 62698.8 lineto
stroke
newpath
72029.2 60284.7 moveto
72029.2 59945.6 lineto
stroke
newpath
71859.7 60115.2 moveto
72198.8 60115.2 lineto
stroke
newpath
72029.2 59423.5 moveto
72029.2 59084.4 lineto
stroke
newpath
71859.7 59254 moveto
72198.8 59254 lineto
stroke
newpath
72029.2 56839.8 moveto
72029.2 56500.8 lineto
stroke
newpath
71859.7 56670.3 moveto
72198.8 56670.3 lineto
stroke
newpath
72029.2 55978.6 moveto
72029.2 55639.5 lineto
stroke
newpath
71859.7 55809.1 moveto
72198.8 55809.1 lineto
stroke
newpath
72029.2 53394.9 moveto
72029.2 53055.9 lineto
stroke
newpath
71859.7 53225.4 moveto
72198.8 53225.4 lineto
stroke
newpath
72029.2 52533.7 moveto
72029.2 52194.7 lineto
stroke
newpath
71859.7 52364.2 moveto
72198.8 52364.2 lineto
stroke
newpath
72029.2 49950 moveto
72029.2 49611 lineto
stroke
newpath
71859.7 49780.5 moveto
72198.8 49780.5 lineto
stroke
newpath
72029.2 49088.8 moveto
72029.2 48749.8 lineto
stroke
newpath
71859.7 48919.3 moveto
72198.8 48919.3 lineto
stroke
newpath
72029.2 46505.2 moveto
72029.2 46166.1 lineto
stroke
newpath
71859.7 46335.6 moveto
72198.8 46335.6 lineto
stroke
newpath
72029.2 45643.9 moveto
72029.2 45304.9 lineto
stroke
newpath
71859.7 45474.4 moveto
72198.8 45474.4 lineto
stroke
newpath
72029.2 43060.3 moveto
72029.2 42721.2 lineto
stroke
newpath
71859.7 42890.7 moveto
72198.8 42890.7 lineto
stroke
newpath
72029.2 42199.1 moveto
72029.2 41860 lineto
stroke
newpath
71859.7 42029.5 moveto
72198.8 42029.5 lineto
stroke
newpath
72029.2 39615.4 moveto
72029.2 39276.3 lineto
stroke
newpath
71859.7 39445.9 moveto
72198.8 39445.9 lineto
stroke
newpath
72029.2 38754.2 moveto
72029.2 38415.1 lineto
stroke
newpath
71859.7 38584.6 moveto
72198.8 38584.6 lineto
stroke
118.11 setlinewidth
0 0 0 setrgbcolor
0 0 0 setrgbcolor
newpath
44194.4 35175.5 moveto
44194.4 36356.6 lineto
44475.7 36356.6 lineto
44644.4 36300.3 lineto
44756.9 36187.9 lineto
44813.1 36075.4 lineto
44869.4 35850.4 lineto
44869.4 35681.7 lineto
44813.1 35456.7 lineto
44756.9 35344.2 lineto
44644.4 35231.7 lineto
44475.7 35175.5 lineto
44194.4 35175.5 lineto
stroke
newpath
45375.5 35175.5 moveto
45375.5 35962.9 lineto
stroke
newpath
45375.5 35737.9 moveto
45431.8 35850.4 lineto
45488 35906.6 lineto
45600.5 35962.9 lineto
45713 35962.9 lineto
stroke
newpath
46106.7 35175.5 moveto
46106.7 35962.9 lineto
stroke
newpath
46106.7 36356.6 moveto
46050.5 36300.3 lineto
46106.7 36244.1 lineto
46162.9 36300.3 lineto
46106.7 36356.6 lineto
46106.7 36244.1 lineto
stroke
newpath
46837.9 35175.5 moveto
46725.4 35231.7 lineto
46669.1 35344.2 lineto
46669.1 36356.6 lineto
stroke
newpath
47456.5 35175.5 moveto
47344 35231.7 lineto
47287.8 35344.2 lineto
47287.8 36356.6 lineto
stroke
newpath
48806.4 35175.5 moveto
48806.4 36356.6 lineto
49200.1 35512.9 lineto
49593.8 36356.6 lineto
49593.8 35175.5 lineto
stroke
newpath
50662.4 35175.5 moveto
50662.4 35794.2 lineto
50606.1 35906.6 lineto
50493.6 35962.9 lineto
50268.7 35962.9 lineto
50156.2 35906.6 lineto
stroke
newpath
50662.4 35231.7 moveto
50549.9 35175.5 lineto
50268.7 35175.5 lineto
50156.2 35231.7 lineto
50099.9 35344.2 lineto
50099.9 35456.7 lineto
50156.2 35569.2 lineto
50268.7 35625.4 lineto
50549.9 35625.4 lineto
50662.4 35681.7 lineto
stroke
newpath
51224.8 35962.9 moveto
51224.8 34781.8 lineto
stroke
newpath
51224.8 35906.6 moveto
51337.3 35962.9 lineto
51562.3 35962.9 lineto
51674.8 35906.6 lineto
51731 35850.4 lineto
51787.2 35737.9 lineto
51787.2 35400.5 lineto
51731 35288 lineto
51674.8 35231.7 lineto
51562.3 35175.5 lineto
51337.3 35175.5 lineto
51224.8 35231.7 lineto
stroke
newpath
52293.4 35288 moveto
52349.7 35231.7 lineto
52293.4 35175.5 lineto
52237.2 35231.7 lineto
52293.4 35288 lineto
52293.4 35175.5 lineto
stroke
newpath
52293.4 35906.6 moveto
52349.7 35850.4 lineto
52293.4 35794.2 lineto
52237.2 35850.4 lineto
52293.4 35906.6 lineto
52293.4 35794.2 lineto
stroke
newpath
42931.1 33297.3 moveto
43066.8 33161.7 lineto
stroke
newpath
43066.8 33297.3 moveto
42931.1 33161.7 lineto
stroke
0 0 0 setrgbcolor
0 0 0 setrgbcolor
newpath
44419.4 33876.3 moveto
44531.9 33876.3 lineto
44644.4 33820 lineto
44700.6 33763.8 lineto
44756.9 33651.3 lineto
44813.1 33426.3 lineto
44813.1 33145.1 lineto
44756.9 32920.1 lineto
44700.6 32807.7 lineto
44644.4 32751.4 lineto
44531.9 32695.2 lineto
44419.4 32695.2 lineto
44306.9 32751.4 lineto
44250.7 32807.7 lineto
44194.4 32920.1 lineto
44138.2 33145.1 lineto
44138.2 33426.3 lineto
44194.4 33651.3 lineto
44250.7 33763.8 lineto
44306.9 33820 lineto
44419.4 33876.3 lineto
stroke
newpath
45319.3 32807.7 moveto
45375.5 32751.4 lineto
45319.3 32695.2 lineto
45263.1 32751.4 lineto
45319.3 32807.7 lineto
45319.3 32695.2 lineto
stroke
newpath
46387.9 33482.6 moveto
46387.9 32695.2 lineto
stroke
newpath
46106.7 33932.5 moveto
45825.5 33088.9 lineto
46556.6 33088.9 lineto
stroke
newpath
47231.6 33876.3 moveto
47344 33876.3 lineto
47456.5 33820 lineto
47512.8 33763.8 lineto
47569 33651.3 lineto
47625.3 33426.3 lineto
47625.3 33145.1 lineto
47569 32920.1 lineto
47512.8 32807.7 lineto
47456.5 32751.4 lineto
47344 32695.2 lineto
47231.6 32695.2 lineto
47119.1 32751.4 lineto
47062.8 32807.7 lineto
47006.6 32920.1 lineto
46950.3 33145.1 lineto
46950.3 33426.3 lineto
47006.6 33651.3 lineto
47062.8 33763.8 lineto
47119.1 33820 lineto
47231.6 33876.3 lineto
stroke
newpath
48131.4 32695.2 moveto
48131.4 33482.6 lineto
stroke
newpath
48131.4 33370.1 moveto
48187.7 33426.3 lineto
48300.2 33482.6 lineto
48468.9 33482.6 lineto
48581.4 33426.3 lineto
48637.6 33313.8 lineto
48637.6 32695.2 lineto
stroke
newpath
48637.6 33313.8 moveto
48693.9 33426.3 lineto
48806.4 33482.6 lineto
48975.1 33482.6 lineto
49087.6 33426.3 lineto
49143.8 33313.8 lineto
49143.8 32695.2 lineto
stroke
newpath
49706.2 32695.2 moveto
49706.2 33482.6 lineto
stroke
newpath
49706.2 33370.1 moveto
49762.5 33426.3 lineto
49875 33482.6 lineto
50043.7 33482.6 lineto
50156.2 33426.3 lineto
50212.4 33313.8 lineto
50212.4 32695.2 lineto
stroke
newpath
50212.4 33313.8 moveto
50268.7 33426.3 lineto
50381.2 33482.6 lineto
50549.9 33482.6 lineto
50662.4 33426.3 lineto
50718.6 33313.8 lineto
50718.6 32695.2 lineto
stroke
newpath
53024.6 33932.5 moveto
52012.2 32414 lineto
stroke
newpath
54543.1 33876.3 moveto
54655.6 33876.3 lineto
54768.1 33820 lineto
54824.4 33763.8 lineto
54880.6 33651.3 lineto
54936.8 33426.3 lineto
54936.8 33145.1 lineto
54880.6 32920.1 lineto
54824.4 32807.7 lineto
54768.1 32751.4 lineto
54655.6 32695.2 lineto
54543.1 32695.2 lineto
54430.7 32751.4 lineto
54374.4 32807.7 lineto
54318.2 32920.1 lineto
54261.9 33145.1 lineto
54261.9 33426.3 lineto
54318.2 33651.3 lineto
54374.4 33763.8 lineto
54430.7 33820 lineto
54543.1 33876.3 lineto
stroke
newpath
55443 32807.7 moveto
55499.3 32751.4 lineto
55443 32695.2 lineto
55386.8 32751.4 lineto
55443 32807.7 lineto
55443 32695.2 lineto
stroke
newpath
56230.4 33876.3 moveto
56342.9 33876.3 lineto
56455.4 33820 lineto
56511.6 33763.8 lineto
56567.9 33651.3 lineto
56624.1 33426.3 lineto
56624.1 33145.1 lineto
56567.9 32920.1 lineto
56511.6 32807.7 lineto
56455.4 32751.4 lineto
56342.9 32695.2 lineto
56230.4 32695.2 lineto
56117.9 32751.4 lineto
56061.7 32807.7 lineto
56005.5 32920.1 lineto
55949.2 33145.1 lineto
55949.2 33426.3 lineto
56005.5 33651.3 lineto
56061.7 33763.8 lineto
56117.9 33820 lineto
56230.4 33876.3 lineto
stroke
newpath
57749 32695.2 moveto
57074.1 32695.2 lineto
stroke
newpath
57411.5 32695.2 moveto
57411.5 33876.3 lineto
57299 33707.5 lineto
57186.6 33595.1 lineto
57074.1 33538.8 lineto
stroke
newpath
58761.4 33876.3 moveto
58536.4 33876.3 lineto
58423.9 33820 lineto
58367.7 33763.8 lineto
58255.2 33595.1 lineto
58198.9 33370.1 lineto
58198.9 32920.1 lineto
58255.2 32807.7 lineto
58311.4 32751.4 lineto
58423.9 32695.2 lineto
58648.9 32695.2 lineto
58761.4 32751.4 lineto
58817.6 32807.7 lineto
58873.9 32920.1 lineto
58873.9 33201.4 lineto
58817.6 33313.8 lineto
58761.4 33370.1 lineto
58648.9 33426.3 lineto
58423.9 33426.3 lineto
58311.4 33370.1 lineto
58255.2 33313.8 lineto
58198.9 33201.4 lineto
stroke
newpath
59323.8 33876.3 moveto
59323.8 33651.3 lineto
stroke
newpath
59773.7 33876.3 moveto
59773.7 33651.3 lineto
stroke
newpath
61517.3 32245.2 moveto
61461 32301.5 lineto
61348.5 32470.2 lineto
61292.3 32582.7 lineto
61236.1 32751.4 lineto
61179.8 33032.6 lineto
61179.8 33257.6 lineto
61236.1 33538.8 lineto
61292.3 33707.5 lineto
61348.5 33820 lineto
61461 33988.8 lineto
61517.3 34045 lineto
stroke
newpath
62585.9 32695.2 moveto
61911 32695.2 lineto
stroke
newpath
62248.4 32695.2 moveto
62248.4 33876.3 lineto
62135.9 33707.5 lineto
62023.5 33595.1 lineto
61911 33538.8 lineto
stroke
newpath
63710.7 32695.2 moveto
63035.8 32695.2 lineto
stroke
newpath
63373.3 32695.2 moveto
63373.3 33876.3 lineto
63260.8 33707.5 lineto
63148.3 33595.1 lineto
63035.8 33538.8 lineto
stroke
newpath
64723.1 33482.6 moveto
64723.1 32695.2 lineto
stroke
newpath
64441.9 33932.5 moveto
64160.7 33088.9 lineto
64891.8 33088.9 lineto
stroke
newpath
66241.7 32695.2 moveto
66241.7 33876.3 lineto
stroke
newpath
66747.9 32695.2 moveto
66747.9 33313.8 lineto
66691.6 33426.3 lineto
66579.1 33482.6 lineto
66410.4 33482.6 lineto
66297.9 33426.3 lineto
66241.7 33370.1 lineto
stroke
newpath
67479 32695.2 moveto
67366.5 32751.4 lineto
67310.3 32807.7 lineto
67254.1 32920.1 lineto
67254.1 33257.6 lineto
67310.3 33370.1 lineto
67366.5 33426.3 lineto
67479 33482.6 lineto
67647.8 33482.6 lineto
67760.2 33426.3 lineto
67816.5 33370.1 lineto
67872.7 33257.6 lineto
67872.7 32920.1 lineto
67816.5 32807.7 lineto
67760.2 32751.4 lineto
67647.8 32695.2 lineto
67479 32695.2 lineto
stroke
newpath
68547.6 32695.2 moveto
68435.2 32751.4 lineto
68378.9 32863.9 lineto
68378.9 33876.3 lineto
stroke
newpath
69447.5 32751.4 moveto
69335 32695.2 lineto
69110.1 32695.2 lineto
68997.6 32751.4 lineto
68941.3 32863.9 lineto
68941.3 33313.8 lineto
68997.6 33426.3 lineto
69110.1 33482.6 lineto
69335 33482.6 lineto
69447.5 33426.3 lineto
69503.8 33313.8 lineto
69503.8 33201.4 lineto
68941.3 33088.9 lineto
stroke
newpath
69953.7 32751.4 moveto
70066.2 32695.2 lineto
70291.2 32695.2 lineto
70403.7 32751.4 lineto
70459.9 32863.9 lineto
70459.9 32920.1 lineto
70403.7 33032.6 lineto
70291.2 33088.9 lineto
70122.4 33088.9 lineto
70010 33145.1 lineto
69953.7 33257.6 lineto
69953.7 33313.8 lineto
70010 33426.3 lineto
70122.4 33482.6 lineto
70291.2 33482.6 lineto
70403.7 33426.3 lineto
stroke
newpath
70853.6 32245.2 moveto
70909.8 32301.5 lineto
71022.3 32470.2 lineto
71078.6 32582.7 lineto
71134.8 32751.4 lineto
71191.1 33032.6 lineto
71191.1 33257.6 lineto
71134.8 33538.8 lineto
71078.6 33707.5 lineto
71022.3 33820 lineto
70909.8 33988.8 lineto
70853.6 34045 lineto
stroke
42914.3 31670.4 152.436 cir0
0 0 0 setrgbcolor
0 0 0 setrgbcolor
newpath
44419.4 32317.2 moveto
44531.9 32317.2 lineto
44644.4 32261 lineto
44700.6 32204.7 lineto
44756.9 32092.2 lineto
44813.1 31867.3 lineto
44813.1 31586.1 lineto
44756.9 31361.1 lineto
44700.6 31248.6 lineto
44644.4 31192.4 lineto
44531.9 31136.1 lineto
44419.4 31136.1 lineto
44306.9 31192.4 lineto
44250.7 31248.6 lineto
44194.4 31361.1 lineto
44138.2 31586.1 lineto
44138.2 31867.3 lineto
44194.4 32092.2 lineto
44250.7 32204.7 lineto
44306.9 32261 lineto
44419.4 32317.2 lineto
stroke
newpath
45319.3 31248.6 moveto
45375.5 31192.4 lineto
45319.3 31136.1 lineto
45263.1 31192.4 lineto
45319.3 31248.6 lineto
45319.3 31136.1 lineto
stroke
newpath
45938 31136.1 moveto
46162.9 31136.1 lineto
46275.4 31192.4 lineto
46331.7 31248.6 lineto
46444.2 31417.3 lineto
46500.4 31642.3 lineto
46500.4 32092.2 lineto
46444.2 32204.7 lineto
46387.9 32261 lineto
46275.4 32317.2 lineto
46050.5 32317.2 lineto
45938 32261 lineto
45881.7 32204.7 lineto
45825.5 32092.2 lineto
45825.5 31811 lineto
45881.7 31698.5 lineto
45938 31642.3 lineto
46050.5 31586.1 lineto
46275.4 31586.1 lineto
46387.9 31642.3 lineto
46444.2 31698.5 lineto
46500.4 31811 lineto
stroke
newpath
47231.6 32317.2 moveto
47344 32317.2 lineto
47456.5 32261 lineto
47512.8 32204.7 lineto
47569 32092.2 lineto
47625.3 31867.3 lineto
47625.3 31586.1 lineto
47569 31361.1 lineto
47512.8 31248.6 lineto
47456.5 31192.4 lineto
47344 31136.1 lineto
47231.6 31136.1 lineto
47119.1 31192.4 lineto
47062.8 31248.6 lineto
47006.6 31361.1 lineto
46950.3 31586.1 lineto
46950.3 31867.3 lineto
47006.6 32092.2 lineto
47062.8 32204.7 lineto
47119.1 32261 lineto
47231.6 32317.2 lineto
stroke
newpath
48131.4 31136.1 moveto
48131.4 31923.5 lineto
stroke
newpath
48131.4 31811 moveto
48187.7 31867.3 lineto
48300.2 31923.5 lineto
48468.9 31923.5 lineto
48581.4 31867.3 lineto
48637.6 31754.8 lineto
48637.6 31136.1 lineto
stroke
newpath
48637.6 31754.8 moveto
48693.9 31867.3 lineto
48806.4 31923.5 lineto
48975.1 31923.5 lineto
49087.6 31867.3 lineto
49143.8 31754.8 lineto
49143.8 31136.1 lineto
stroke
newpath
49706.2 31136.1 moveto
49706.2 31923.5 lineto
stroke
newpath
49706.2 31811 moveto
49762.5 31867.3 lineto
49875 31923.5 lineto
50043.7 31923.5 lineto
50156.2 31867.3 lineto
50212.4 31754.8 lineto
50212.4 31136.1 lineto
stroke
newpath
50212.4 31754.8 moveto
50268.7 31867.3 lineto
50381.2 31923.5 lineto
50549.9 31923.5 lineto
50662.4 31867.3 lineto
50718.6 31754.8 lineto
50718.6 31136.1 lineto
stroke
newpath
53024.6 32373.5 moveto
52012.2 30854.9 lineto
stroke
newpath
54543.1 32317.2 moveto
54655.6 32317.2 lineto
54768.1 32261 lineto
54824.4 32204.7 lineto
54880.6 32092.2 lineto
54936.8 31867.3 lineto
54936.8 31586.1 lineto
54880.6 31361.1 lineto
54824.4 31248.6 lineto
54768.1 31192.4 lineto
54655.6 31136.1 lineto
54543.1 31136.1 lineto
54430.7 31192.4 lineto
54374.4 31248.6 lineto
54318.2 31361.1 lineto
54261.9 31586.1 lineto
54261.9 31867.3 lineto
54318.2 32092.2 lineto
54374.4 32204.7 lineto
54430.7 32261 lineto
54543.1 32317.2 lineto
stroke
newpath
55443 31248.6 moveto
55499.3 31192.4 lineto
55443 31136.1 lineto
55386.8 31192.4 lineto
55443 31248.6 lineto
55443 31136.1 lineto
stroke
newpath
56230.4 32317.2 moveto
56342.9 32317.2 lineto
56455.4 32261 lineto
56511.6 32204.7 lineto
56567.9 32092.2 lineto
56624.1 31867.3 lineto
56624.1 31586.1 lineto
56567.9 31361.1 lineto
56511.6 31248.6 lineto
56455.4 31192.4 lineto
56342.9 31136.1 lineto
56230.4 31136.1 lineto
56117.9 31192.4 lineto
56061.7 31248.6 lineto
56005.5 31361.1 lineto
55949.2 31586.1 lineto
55949.2 31867.3 lineto
56005.5 32092.2 lineto
56061.7 32204.7 lineto
56117.9 32261 lineto
56230.4 32317.2 lineto
stroke
newpath
57017.8 32317.2 moveto
57749 32317.2 lineto
57355.3 31867.3 lineto
57524 31867.3 lineto
57636.5 31811 lineto
57692.7 31754.8 lineto
57749 31642.3 lineto
57749 31361.1 lineto
57692.7 31248.6 lineto
57636.5 31192.4 lineto
57524 31136.1 lineto
57186.6 31136.1 lineto
57074.1 31192.4 lineto
57017.8 31248.6 lineto
stroke
newpath
58817.6 32317.2 moveto
58255.2 32317.2 lineto
58198.9 31754.8 lineto
58255.2 31811 lineto
58367.7 31867.3 lineto
58648.9 31867.3 lineto
58761.4 31811 lineto
58817.6 31754.8 lineto
58873.9 31642.3 lineto
58873.9 31361.1 lineto
58817.6 31248.6 lineto
58761.4 31192.4 lineto
58648.9 31136.1 lineto
58367.7 31136.1 lineto
58255.2 31192.4 lineto
58198.9 31248.6 lineto
stroke
newpath
59323.8 32317.2 moveto
59323.8 32092.2 lineto
stroke
newpath
59773.7 32317.2 moveto
59773.7 32092.2 lineto
stroke
newpath
61517.3 30686.2 moveto
61461 30742.4 lineto
61348.5 30911.1 lineto
61292.3 31023.6 lineto
61236.1 31192.4 lineto
61179.8 31473.6 lineto
61179.8 31698.5 lineto
61236.1 31979.8 lineto
61292.3 32148.5 lineto
61348.5 32261 lineto
61461 32429.7 lineto
61517.3 32485.9 lineto
stroke
newpath
62529.6 32317.2 moveto
61967.2 32317.2 lineto
61911 31754.8 lineto
61967.2 31811 lineto
62079.7 31867.3 lineto
62360.9 31867.3 lineto
62473.4 31811 lineto
62529.6 31754.8 lineto
62585.9 31642.3 lineto
62585.9 31361.1 lineto
62529.6 31248.6 lineto
62473.4 31192.4 lineto
62360.9 31136.1 lineto
62079.7 31136.1 lineto
61967.2 31192.4 lineto
61911 31248.6 lineto
stroke
newpath
63992 31136.1 moveto
63992 32317.2 lineto
stroke
newpath
64498.1 31136.1 moveto
64498.1 31754.8 lineto
64441.9 31867.3 lineto
64329.4 31923.5 lineto
64160.7 31923.5 lineto
64048.2 31867.3 lineto
63992 31811 lineto
stroke
newpath
65229.3 31136.1 moveto
65116.8 31192.4 lineto
65060.6 31248.6 lineto
65004.3 31361.1 lineto
65004.3 31698.5 lineto
65060.6 31811 lineto
65116.8 31867.3 lineto
65229.3 31923.5 lineto
65398 31923.5 lineto
65510.5 31867.3 lineto
65566.8 31811 lineto
65623 31698.5 lineto
65623 31361.1 lineto
65566.8 31248.6 lineto
65510.5 31192.4 lineto
65398 31136.1 lineto
65229.3 31136.1 lineto
stroke
newpath
66297.9 31136.1 moveto
66185.4 31192.4 lineto
66129.2 31304.8 lineto
66129.2 32317.2 lineto
stroke
newpath
67197.8 31192.4 moveto
67085.3 31136.1 lineto
66860.4 31136.1 lineto
66747.9 31192.4 lineto
66691.6 31304.8 lineto
66691.6 31754.8 lineto
66747.9 31867.3 lineto
66860.4 31923.5 lineto
67085.3 31923.5 lineto
67197.8 31867.3 lineto
67254.1 31754.8 lineto
67254.1 31642.3 lineto
66691.6 31529.8 lineto
stroke
newpath
67704 31192.4 moveto
67816.5 31136.1 lineto
68041.5 31136.1 lineto
68153.9 31192.4 lineto
68210.2 31304.8 lineto
68210.2 31361.1 lineto
68153.9 31473.6 lineto
68041.5 31529.8 lineto
67872.7 31529.8 lineto
67760.2 31586.1 lineto
67704 31698.5 lineto
67704 31754.8 lineto
67760.2 31867.3 lineto
67872.7 31923.5 lineto
68041.5 31923.5 lineto
68153.9 31867.3 lineto
stroke
newpath
68603.9 30686.2 moveto
68660.1 30742.4 lineto
68772.6 30911.1 lineto
68828.9 31023.6 lineto
68885.1 31192.4 lineto
68941.3 31473.6 lineto
68941.3 31698.5 lineto
68885.1 31979.8 lineto
68828.9 32148.5 lineto
68772.6 32261 lineto
68660.1 32429.7 lineto
68603.9 32485.9 lineto
stroke
newpath
42897.2 30280.9 moveto
42897.2 29941.8 lineto
stroke
newpath
42727.7 30111.4 moveto
43066.8 30111.4 lineto
stroke
0 0 0 setrgbcolor
0 0 0 setrgbcolor
newpath
44813.1 29577.1 moveto
44138.2 29577.1 lineto
stroke
newpath
44475.7 29577.1 moveto
44475.7 30758.2 lineto
44363.2 30589.4 lineto
44250.7 30477 lineto
44138.2 30420.7 lineto
stroke
newpath
45319.3 29689.5 moveto
45375.5 29633.3 lineto
45319.3 29577.1 lineto
45263.1 29633.3 lineto
45319.3 29689.5 lineto
45319.3 29577.1 lineto
stroke
newpath
46106.7 30758.2 moveto
46219.2 30758.2 lineto
46331.7 30701.9 lineto
46387.9 30645.7 lineto
46444.2 30533.2 lineto
46500.4 30308.2 lineto
46500.4 30027 lineto
46444.2 29802 lineto
46387.9 29689.5 lineto
46331.7 29633.3 lineto
46219.2 29577.1 lineto
46106.7 29577.1 lineto
45994.2 29633.3 lineto
45938 29689.5 lineto
45881.7 29802 lineto
45825.5 30027 lineto
45825.5 30308.2 lineto
45881.7 30533.2 lineto
45938 30645.7 lineto
45994.2 30701.9 lineto
46106.7 30758.2 lineto
stroke
newpath
47231.6 30758.2 moveto
47344 30758.2 lineto
47456.5 30701.9 lineto
47512.8 30645.7 lineto
47569 30533.2 lineto
47625.3 30308.2 lineto
47625.3 30027 lineto
47569 29802 lineto
47512.8 29689.5 lineto
47456.5 29633.3 lineto
47344 29577.1 lineto
47231.6 29577.1 lineto
47119.1 29633.3 lineto
47062.8 29689.5 lineto
47006.6 29802 lineto
46950.3 30027 lineto
46950.3 30308.2 lineto
47006.6 30533.2 lineto
47062.8 30645.7 lineto
47119.1 30701.9 lineto
47231.6 30758.2 lineto
stroke
newpath
48131.4 29577.1 moveto
48131.4 30364.5 lineto
stroke
newpath
48131.4 30252 moveto
48187.7 30308.2 lineto
48300.2 30364.5 lineto
48468.9 30364.5 lineto
48581.4 30308.2 lineto
48637.6 30195.7 lineto
48637.6 29577.1 lineto
stroke
newpath
48637.6 30195.7 moveto
48693.9 30308.2 lineto
48806.4 30364.5 lineto
48975.1 30364.5 lineto
49087.6 30308.2 lineto
49143.8 30195.7 lineto
49143.8 29577.1 lineto
stroke
newpath
49706.2 29577.1 moveto
49706.2 30364.5 lineto
stroke
newpath
49706.2 30252 moveto
49762.5 30308.2 lineto
49875 30364.5 lineto
50043.7 30364.5 lineto
50156.2 30308.2 lineto
50212.4 30195.7 lineto
50212.4 29577.1 lineto
stroke
newpath
50212.4 30195.7 moveto
50268.7 30308.2 lineto
50381.2 30364.5 lineto
50549.9 30364.5 lineto
50662.4 30308.2 lineto
50718.6 30195.7 lineto
50718.6 29577.1 lineto
stroke
newpath
53024.6 30814.4 moveto
52012.2 29295.8 lineto
stroke
newpath
54543.1 30758.2 moveto
54655.6 30758.2 lineto
54768.1 30701.9 lineto
54824.4 30645.7 lineto
54880.6 30533.2 lineto
54936.8 30308.2 lineto
54936.8 30027 lineto
54880.6 29802 lineto
54824.4 29689.5 lineto
54768.1 29633.3 lineto
54655.6 29577.1 lineto
54543.1 29577.1 lineto
54430.7 29633.3 lineto
54374.4 29689.5 lineto
54318.2 29802 lineto
54261.9 30027 lineto
54261.9 30308.2 lineto
54318.2 30533.2 lineto
54374.4 30645.7 lineto
54430.7 30701.9 lineto
54543.1 30758.2 lineto
stroke
newpath
55443 29689.5 moveto
55499.3 29633.3 lineto
55443 29577.1 lineto
55386.8 29633.3 lineto
55443 29689.5 lineto
55443 29577.1 lineto
stroke
newpath
56230.4 30758.2 moveto
56342.9 30758.2 lineto
56455.4 30701.9 lineto
56511.6 30645.7 lineto
56567.9 30533.2 lineto
56624.1 30308.2 lineto
56624.1 30027 lineto
56567.9 29802 lineto
56511.6 29689.5 lineto
56455.4 29633.3 lineto
56342.9 29577.1 lineto
56230.4 29577.1 lineto
56117.9 29633.3 lineto
56061.7 29689.5 lineto
56005.5 29802 lineto
55949.2 30027 lineto
55949.2 30308.2 lineto
56005.5 30533.2 lineto
56061.7 30645.7 lineto
56117.9 30701.9 lineto
56230.4 30758.2 lineto
stroke
newpath
57017.8 30758.2 moveto
57749 30758.2 lineto
57355.3 30308.2 lineto
57524 30308.2 lineto
57636.5 30252 lineto
57692.7 30195.7 lineto
57749 30083.2 lineto
57749 29802 lineto
57692.7 29689.5 lineto
57636.5 29633.3 lineto
57524 29577.1 lineto
57186.6 29577.1 lineto
57074.1 29633.3 lineto
57017.8 29689.5 lineto
stroke
newpath
58311.4 29577.1 moveto
58536.4 29577.1 lineto
58648.9 29633.3 lineto
58705.1 29689.5 lineto
58817.6 29858.3 lineto
58873.9 30083.2 lineto
58873.9 30533.2 lineto
58817.6 30645.7 lineto
58761.4 30701.9 lineto
58648.9 30758.2 lineto
58423.9 30758.2 lineto
58311.4 30701.9 lineto
58255.2 30645.7 lineto
58198.9 30533.2 lineto
58198.9 30252 lineto
58255.2 30139.5 lineto
58311.4 30083.2 lineto
58423.9 30027 lineto
58648.9 30027 lineto
58761.4 30083.2 lineto
58817.6 30139.5 lineto
58873.9 30252 lineto
stroke
newpath
59323.8 30758.2 moveto
59323.8 30533.2 lineto
stroke
newpath
59773.7 30758.2 moveto
59773.7 30533.2 lineto
stroke
newpath
61517.3 29127.1 moveto
61461 29183.4 lineto
61348.5 29352.1 lineto
61292.3 29464.6 lineto
61236.1 29633.3 lineto
61179.8 29914.5 lineto
61179.8 30139.5 lineto
61236.1 30420.7 lineto
61292.3 30589.4 lineto
61348.5 30701.9 lineto
61461 30870.7 lineto
61517.3 30926.9 lineto
stroke
newpath
62473.4 30364.5 moveto
62473.4 29577.1 lineto
stroke
newpath
62192.2 30814.4 moveto
61911 29970.8 lineto
62642.1 29970.8 lineto
stroke
newpath
63598.3 30364.5 moveto
63598.3 29577.1 lineto
stroke
newpath
63317 30814.4 moveto
63035.8 29970.8 lineto
63767 29970.8 lineto
stroke
newpath
65116.8 29577.1 moveto
65116.8 30758.2 lineto
stroke
newpath
65623 29577.1 moveto
65623 30195.7 lineto
65566.8 30308.2 lineto
65454.3 30364.5 lineto
65285.5 30364.5 lineto
65173.1 30308.2 lineto
65116.8 30252 lineto
stroke
newpath
66354.2 29577.1 moveto
66241.7 29633.3 lineto
66185.4 29689.5 lineto
66129.2 29802 lineto
66129.2 30139.5 lineto
66185.4 30252 lineto
66241.7 30308.2 lineto
66354.2 30364.5 lineto
66522.9 30364.5 lineto
66635.4 30308.2 lineto
66691.6 30252 lineto
66747.9 30139.5 lineto
66747.9 29802 lineto
66691.6 29689.5 lineto
66635.4 29633.3 lineto
66522.9 29577.1 lineto
66354.2 29577.1 lineto
stroke
newpath
67422.8 29577.1 moveto
67310.3 29633.3 lineto
67254.1 29745.8 lineto
67254.1 30758.2 lineto
stroke
newpath
68322.7 29633.3 moveto
68210.2 29577.1 lineto
67985.2 29577.1 lineto
67872.7 29633.3 lineto
67816.5 29745.8 lineto
67816.5 30195.7 lineto
67872.7 30308.2 lineto
67985.2 30364.5 lineto
68210.2 30364.5 lineto
68322.7 30308.2 lineto
68378.9 30195.7 lineto
68378.9 30083.2 lineto
67816.5 29970.8 lineto
stroke
newpath
68828.9 29633.3 moveto
68941.3 29577.1 lineto
69166.3 29577.1 lineto
69278.8 29633.3 lineto
69335 29745.8 lineto
69335 29802 lineto
69278.8 29914.5 lineto
69166.3 29970.8 lineto
68997.6 29970.8 lineto
68885.1 30027 lineto
68828.9 30139.5 lineto
68828.9 30195.7 lineto
68885.1 30308.2 lineto
68997.6 30364.5 lineto
69166.3 30364.5 lineto
69278.8 30308.2 lineto
stroke
newpath
69728.7 29127.1 moveto
69785 29183.4 lineto
69897.5 29352.1 lineto
69953.7 29464.6 lineto
70010 29633.3 lineto
70066.2 29914.5 lineto
70066.2 30139.5 lineto
70010 30420.7 lineto
69953.7 30589.4 lineto
69897.5 30701.9 lineto
69785 30870.7 lineto
69728.7 30926.9 lineto
stroke
showpage
grestore
%%EOF
