%!PS-Adobe-3.0
%%Creator: PCBNEW
%%CreationDate: Fri Jun 11 17:12:22 2021
%%Title: /Users/zhicai/gDrive/silicon/mac_git/dc_noise_measurement/gerbers/dc_noise_measurement-NPTH-drl_map.ps
%%Pages: 1
%%PageOrder: Ascend
%%BoundingBox: 0 0 596 842
%%DocumentMedia: A4 595 842 0 () ()
%%Orientation: Landscape
%%EndComments
%%BeginProlog
/line { newpath moveto lineto stroke } bind def
/cir0 { newpath 0 360 arc stroke } bind def
/cir1 { newpath 0 360 arc gsave fill grestore stroke } bind def
/cir2 { newpath 0 360 arc gsave fill grestore stroke } bind def
/arc0 { newpath arc stroke } bind def
/arc1 { newpath 4 index 4 index moveto arc closepath gsave fill
    grestore stroke } bind def
/arc2 { newpath 4 index 4 index moveto arc closepath gsave fill
    grestore stroke } bind def
/poly0 { stroke } bind def
/poly1 { closepath gsave fill grestore stroke } bind def
/poly2 { closepath gsave fill grestore stroke } bind def
/rect0 { rectstroke } bind def
/rect1 { rectfill } bind def
/rect2 { rectfill } bind def
/linemode0 { 0 setlinecap 0 setlinejoin 0 setlinewidth } bind def
/linemode1 { 1 setlinecap 1 setlinejoin } bind def
/dashedline { [200] 100 setdash } bind def
/solidline { [] 0 setdash } bind def
/phantomshow { moveto
    /KicadFont findfont 0.000001 scalefont setfont
    show } bind def
/textshow { gsave
    findfont exch scalefont setfont concat 1 scale 0 0 moveto show
    } bind def
/reencodefont {
  findfont dup length dict begin
  { 1 index /FID ne
    { def }
    { pop pop } ifelse
  } forall
  /Encoding ISOLatin1Encoding def
  currentdict
  end } bind def
/KicadFont /Helvetica reencodefont definefont pop
/KicadFont-Bold /Helvetica-Bold reencodefont definefont pop
/KicadFont-Oblique /Helvetica-Oblique reencodefont definefont pop
/KicadFont-BoldOblique /Helvetica-BoldOblique reencodefont definefont pop
%%EndProlog
%%Page: 1 1
%%BeginPageSetup
gsave
0.0072 0.0072 scale
linemode1
82680 0 translate 90 rotate
43.0611 setlinewidth
%%EndPageSetup
0 0 0 setrgbcolor
50.8595 setlinewidth
newpath
43092.2 75100.4 moveto
59455.4 75100.4 lineto
stroke
0 0 0 setrgbcolor
newpath
43092.2 78717.6 moveto
43092.2 75100.4 lineto
stroke
0 0 0 setrgbcolor
newpath
43092.2 78717.6 moveto
73837.8 78717.6 lineto
stroke
0 0 0 setrgbcolor
newpath
59455.4 37034.4 moveto
59455.4 75100.4 lineto
stroke
0 0 0 setrgbcolor
newpath
73837.8 37034.4 moveto
59455.4 37034.4 lineto
stroke
0 0 0 setrgbcolor
newpath
73837.8 78717.6 moveto
73837.8 37034.4 lineto
stroke
78.7401 setlinewidth
118.11 setlinewidth
0 0 0 setrgbcolor
0 0 0 setrgbcolor
newpath
44194.4 35175.5 moveto
44194.4 36356.6 lineto
44475.7 36356.6 lineto
44644.4 36300.3 lineto
44756.9 36187.9 lineto
44813.1 36075.4 lineto
44869.4 35850.4 lineto
44869.4 35681.7 lineto
44813.1 35456.7 lineto
44756.9 35344.2 lineto
44644.4 35231.7 lineto
44475.7 35175.5 lineto
44194.4 35175.5 lineto
stroke
newpath
45375.5 35175.5 moveto
45375.5 35962.9 lineto
stroke
newpath
45375.5 35737.9 moveto
45431.8 35850.4 lineto
45488 35906.6 lineto
45600.5 35962.9 lineto
45713 35962.9 lineto
stroke
newpath
46106.7 35175.5 moveto
46106.7 35962.9 lineto
stroke
newpath
46106.7 36356.6 moveto
46050.5 36300.3 lineto
46106.7 36244.1 lineto
46162.9 36300.3 lineto
46106.7 36356.6 lineto
46106.7 36244.1 lineto
stroke
newpath
46837.9 35175.5 moveto
46725.4 35231.7 lineto
46669.1 35344.2 lineto
46669.1 36356.6 lineto
stroke
newpath
47456.5 35175.5 moveto
47344 35231.7 lineto
47287.8 35344.2 lineto
47287.8 36356.6 lineto
stroke
newpath
48806.4 35175.5 moveto
48806.4 36356.6 lineto
49200.1 35512.9 lineto
49593.8 36356.6 lineto
49593.8 35175.5 lineto
stroke
newpath
50662.4 35175.5 moveto
50662.4 35794.2 lineto
50606.1 35906.6 lineto
50493.6 35962.9 lineto
50268.7 35962.9 lineto
50156.2 35906.6 lineto
stroke
newpath
50662.4 35231.7 moveto
50549.9 35175.5 lineto
50268.7 35175.5 lineto
50156.2 35231.7 lineto
50099.9 35344.2 lineto
50099.9 35456.7 lineto
50156.2 35569.2 lineto
50268.7 35625.4 lineto
50549.9 35625.4 lineto
50662.4 35681.7 lineto
stroke
newpath
51224.8 35962.9 moveto
51224.8 34781.8 lineto
stroke
newpath
51224.8 35906.6 moveto
51337.3 35962.9 lineto
51562.3 35962.9 lineto
51674.8 35906.6 lineto
51731 35850.4 lineto
51787.2 35737.9 lineto
51787.2 35400.5 lineto
51731 35288 lineto
51674.8 35231.7 lineto
51562.3 35175.5 lineto
51337.3 35175.5 lineto
51224.8 35231.7 lineto
stroke
newpath
52293.4 35288 moveto
52349.7 35231.7 lineto
52293.4 35175.5 lineto
52237.2 35231.7 lineto
52293.4 35288 lineto
52293.4 35175.5 lineto
stroke
newpath
52293.4 35906.6 moveto
52349.7 35850.4 lineto
52293.4 35794.2 lineto
52237.2 35850.4 lineto
52293.4 35906.6 lineto
52293.4 35794.2 lineto
stroke
showpage
grestore
%%EOF
